<?xml version="1.0" standalone="no"?>
<!DOCTYPE svg PUBLIC "-//W3C//DTD SVG 1.1//EN" "http://www.w3.org/Graphics/SVG/1.1/DTD/svg11.dtd" >
<svg xmlns="http://www.w3.org/2000/svg">
<metadata>Generated by IcoMoon</metadata>
<defs>
<font id="icomoon" horiz-adv-x="1024">
<font-face units-per-em="1024" ascent="960" descent="-64" />
<missing-glyph horiz-adv-x="1024" />
<glyph unicode="&#x20;" horiz-adv-x="512" d="" />
<glyph unicode="&#xe600;" glyph-name="email" d="M597.333 480.427c5.12 6.827 10.24 13.653 15.36 20.48s10.24 13.653 17.067 20.48 22.187 25.6 34.133 37.547c6.827 6.827 11.947 11.947 18.773 17.067s11.947 11.947 18.773 17.067 25.6 22.187 40.96 30.72l3.413 1.707c6.827 5.12 15.36 3.413 20.48-3.413 0 0 0-1.707 1.707-1.707 3.413-6.827 5.12-15.36 6.827-22.187 0-3.413 0-8.533 0-11.947 0-1.707 0-3.413 0-5.12v-5.12c-5.12-13.653-6.827-25.6-6.827-39.253s0-25.6 0-39.253c0-6.827 0-13.653 1.707-18.773l1.707-18.773 5.12-39.253c1.707-13.653 3.413-25.6 3.413-39.253l1.707-39.253c0-3.413 0-6.827 0-10.24 0-5.12 0-8.533-1.707-13.653-1.707-8.533-5.12-17.067-8.533-23.893-5.12-10.24-18.773-15.36-30.72-8.533-1.707 1.707-3.413 3.413-5.12 3.413l-1.707 1.707c-13.653 13.653-25.6 29.013-39.253 42.667-6.827 6.827-11.947 15.36-18.773 22.187s-11.947 15.36-17.067 22.187l-17.067 23.893c-5.12 8.533-11.947 15.36-17.067 23.893s-10.24 17.067-15.36 23.893c-5.12 8.533-10.24 17.067-15.36 25.6 1.707 3.413 1.707 5.12 3.413 5.12v0zM602.453 478.72c6.827-5.12 15.36-10.24 22.187-15.36 8.533-6.827 15.36-11.947 22.187-18.773s15.36-11.947 22.187-18.773l22.187-20.48c6.827-6.827 13.653-13.653 20.48-20.48s13.653-13.653 20.48-20.48 25.6-29.013 39.253-42.667l-35.84-3.413c1.707 3.413 3.413 6.827 5.12 11.947 0 1.707 1.707 3.413 1.707 5.12s0 6.827 0 8.533l1.707 39.253c1.707 13.653 1.707 25.6 3.413 39.253l5.12 39.253 1.707 18.773c0 6.827 1.707 13.653 1.707 18.773 0 13.653 0 25.6 0 39.253s-1.707 25.6-3.413 39.253v5.12c0 1.707 0 3.413-1.707 3.413 0 1.707-1.707 5.12-3.413 6.827-1.707 5.12-5.12 8.533-8.533 11.947l23.893-3.413c-11.947-13.653-23.893-25.6-35.84-35.84-6.827-5.12-13.653-10.24-18.773-17.067-6.827-5.12-13.653-10.24-20.48-15.36-13.653-10.24-27.307-20.48-40.96-29.013-6.827-5.12-13.653-8.533-22.187-13.653s-15.36-8.533-22.187-11.947zM616.107 555.52c17.067 15.36 34.133 30.72 49.493 49.493 15.36 17.067 30.72 35.84 46.080 52.907l3.413-25.6c-6.827 1.707-13.653 3.413-18.773 3.413h-11.947c-5.12 0-8.533 0-13.653 0-8.533 0-17.067 0-27.307 0-8.533 0-17.067 0-27.307 1.707-35.84 1.707-71.68 8.533-107.52 10.24-17.067 1.707-35.84 1.707-52.907 1.707s-35.84-1.707-52.907-1.707c-17.067-1.707-35.84-3.413-52.907-5.12l-13.653-1.707c-5.12 0-8.533 0-11.947-1.707-6.827-1.707-11.947-3.413-17.067-6.827l3.413 29.013c18.773-13.653 37.547-29.013 54.613-44.373 18.773-15.36 35.84-29.013 54.613-44.373 17.067-15.36 35.84-30.72 52.907-47.787 17.067-15.36 34.133-32.427 49.493-51.2h-22.187c20.48 13.653 40.96 25.6 59.733 39.253 18.773 11.947 37.547 25.6 56.32 42.667zM617.813 552.107c-17.067-15.36-34.133-32.427-51.2-51.2-15.36-18.773-30.72-35.84-47.787-54.613-5.12-5.12-13.653-6.827-18.773-1.707l-3.413 1.707c-20.48 13.653-39.253 27.307-56.32 42.667-18.773 15.36-35.84 30.72-52.907 46.080s-34.133 32.427-51.2 47.787c-17.067 17.067-34.133 32.427-51.2 49.493l-1.707 1.707c-6.827 6.827-6.827 17.067 0 23.893 1.707 1.707 3.413 3.413 5.12 3.413 10.24 5.12 22.187 8.533 32.427 8.533 5.12 0 10.24 0 13.653-1.707l13.653-1.707c17.067-1.707 35.84-3.413 52.907-5.12s35.84-1.707 52.907-1.707c17.067 0 35.84 0 52.907 1.707 35.84 1.707 71.68 8.533 107.52 10.24 8.533 0 17.067 1.707 27.307 1.707 8.533 0 17.067 0 27.307 0 5.12 0 8.533 0 13.653 0h10.24c1.707 0 3.413 0 5.12 0 11.947-1.707 22.187-5.12 32.427-11.947l3.413-1.707c6.827-5.12 8.533-13.653 3.413-20.48-1.707-1.707-1.707-3.413-3.413-3.413-18.773-13.653-39.253-25.6-58.027-39.253-22.187-15.36-39.253-29.013-58.027-44.373zM498.347 389.973c-8.533 6.827-17.067 13.653-25.6 20.48s-17.067 13.653-25.6 20.48h6.827c-11.947-15.36-22.187-32.427-34.133-47.787-11.947-17.067-22.187-32.427-34.133-47.787s-25.6-30.72-39.253-44.373c-13.653-13.653-27.307-27.307-42.667-40.96l-3.413 22.187c5.12-5.12 11.947-8.533 18.773-10.24 1.707 0 3.413 0 5.12-1.707h6.827l13.653-1.707c18.773-1.707 35.84-3.413 54.613-3.413 35.84 0 71.68 1.707 109.227 3.413 35.84 3.413 71.68 6.827 109.227 8.533l54.613 1.707h20.48c3.413 0 3.413 0 5.12 0 5.12 1.707 10.24 3.413 15.36 6.827l-5.12-34.133c-13.653 13.653-25.6 29.013-39.253 44.373-11.947 15.36-25.6 29.013-37.547 44.373s-23.893 30.72-35.84 47.787c-11.947 15.36-22.187 32.427-34.133 49.493h11.947c-11.947-8.533-23.893-17.067-35.84-25.6l-8.533-5.12c-3.413-1.707-5.12-5.12-8.533-6.827-3.413-3.413-6.827-3.413-11.947-3.413-3.413 0-6.827 1.707-10.24 3.413zM501.76 393.387c1.707-1.707 5.12-3.413 8.533-3.413s6.827 1.707 8.533 3.413c1.707 1.707 5.12 5.12 8.533 6.827l8.533 8.533c10.24 10.24 20.48 20.48 30.72 32.427 3.413 3.413 6.827 3.413 10.24 0l1.707-1.707c15.36-13.653 30.72-25.6 44.373-39.253 15.36-13.653 29.013-25.6 42.667-40.96 13.653-13.653 27.307-27.307 40.96-42.667 13.653-13.653 25.6-29.013 39.253-44.373v0c8.533-10.24 6.827-23.893-1.707-30.72-1.707 0-1.707-1.707-3.413-1.707-10.24-6.827-22.187-10.24-34.133-11.947-3.413 0-6.827 0-8.533 0h-20.48l-54.613 1.707c-35.84 1.707-71.68 5.12-109.227 8.533-35.84 3.413-71.68 5.12-109.227 3.413-18.773 0-35.84-1.707-54.613-3.413l-13.653-1.707h-6.827c-3.413 0-5.12 0-8.533 0-10.24 0-22.187 3.413-32.427 8.533-6.827 3.413-10.24 11.947-5.12 18.773 0 0 0 1.707 1.707 1.707l1.707 1.707c11.947 15.36 23.893 30.72 35.84 46.080s25.6 29.013 39.253 42.667c13.653 13.653 29.013 27.307 42.667 39.253 15.36 13.653 30.72 25.6 44.373 39.253v0c1.707 1.707 5.12 1.707 6.827 0 6.827-8.533 15.36-15.36 22.187-23.893 6.827-1.707 15.36-10.24 23.893-17.067zM254.293 459.947c0 13.653 0 25.6-1.707 39.253s-3.413 25.6-6.827 39.253c-1.707 13.653-5.12 25.6-6.827 39.253 0 1.707 0 3.413 0 5.12s0 1.707 0 3.413v3.413c0 3.413 0 8.533 1.707 11.947 0 3.413 1.707 8.533 3.413 11.947s3.413 6.827 5.12 11.947c5.12 8.533 17.067 11.947 27.307 6.827 0 0 1.707-1.707 1.707-1.707v0c11.947-11.947 23.893-23.893 35.84-35.84l17.067-18.773c5.12-6.827 11.947-13.653 17.067-18.773 11.947-11.947 23.893-23.893 37.547-35.84 6.827-5.12 13.653-10.24 20.48-15.36 3.413-3.413 6.827-5.12 10.24-6.827s6.827-5.12 10.24-6.827c3.413-3.413 5.12-8.533 1.707-11.947v0l-1.707-1.707-17.067-30.72c-5.12-8.533-10.24-15.36-17.067-23.893-11.947-15.36-23.893-30.72-35.84-46.080s-23.893-30.72-37.547-44.373c-6.827-6.827-11.947-13.653-18.773-22.187-6.827-6.827-13.653-13.653-20.48-20.48l-1.707-1.707c-8.533-8.533-22.187-8.533-30.72 0-1.707 1.707-3.413 3.413-3.413 5.12-3.413 6.827-6.827 15.36-8.533 23.893 0 5.12 0 8.533 0 13.653 0 1.707 0 3.413 0 5.12v5.12c1.707 13.653 5.12 25.6 6.827 39.253s5.12 25.6 6.827 39.253c3.413 13.653 5.12 25.6 5.12 39.253zM257.707 459.947c0-13.653 1.707-25.6 3.413-39.253s3.413-25.6 6.827-39.253c1.707-13.653 5.12-25.6 6.827-39.253v-5.12c0-1.707 0-3.413 0-3.413 0-1.707 1.707-3.413 1.707-6.827 1.707-3.413 3.413-8.533 5.12-11.947l-35.84 3.413c6.827 6.827 11.947 15.36 18.773 22.187s11.947 15.36 18.773 22.187c13.653 13.653 27.307 27.307 40.96 40.96s27.307 27.307 40.96 40.96c6.827 6.827 13.653 13.653 22.187 18.773l22.187 18.773 1.707-13.653c-3.413 3.413-5.12 6.827-8.533 8.533-3.413 3.413-5.12 6.827-8.533 8.533-5.12 6.827-11.947 11.947-18.773 17.067-11.947 11.947-25.6 22.187-39.253 32.427-6.827 5.12-13.653 10.24-20.48 13.653l-22.187 18.773c-13.653 10.24-27.307 18.773-40.96 30.72l29.013 3.413c-1.707-3.413-5.12-8.533-5.12-11.947 0-1.707-1.707-3.413-1.707-6.827v-1.707c0 0 0-1.707 0-1.707v-5.12c-1.707-13.653-3.413-25.6-6.827-39.253-1.707-13.653-5.12-25.6-6.827-39.253-1.707-10.24-3.413-23.893-3.413-35.84zM331.093 823.467c0 0-10.24-5.12-27.307-13.653-18.773-8.533-44.373-23.893-75.093-44.373-15.36-10.24-32.427-23.893-47.787-37.547-17.067-15.36-32.427-32.427-47.787-52.907-30.72-40.96-56.32-92.16-66.56-153.6-5.12-30.72-8.533-63.147-6.827-97.28 0-3.413 0-8.533 0-11.947v-3.413c0 0 0 0 0 0v-8.533c0-8.533 1.707-18.773 1.707-27.307 1.707-17.067 5.12-34.133 8.533-51.2 1.707-8.533 3.413-17.067 6.827-25.6 1.707-5.12 1.707-8.533 3.413-13.653s3.413-8.533 5.12-13.653c5.12-17.067 13.653-34.133 22.187-51.2 17.067-34.133 39.253-66.56 66.56-93.867 54.613-58.027 129.707-100.693 211.627-121.173 20.48-5.12 40.96-8.533 63.147-11.947 20.48-3.413 42.667-3.413 63.147-3.413 10.24 0 22.187 0 32.427 1.707 3.413 0 5.12 0 8.533 0h8.533c5.12 0 10.24 1.707 15.36 1.707 20.48 3.413 40.96 8.533 61.44 13.653 40.96 11.947 78.507 32.427 110.933 58.027s61.44 54.613 83.627 88.747c46.080 68.267 69.973 146.773 76.8 225.28 1.707 18.773 3.413 39.253 3.413 58.027 0 10.24 0 18.773 0 29.013 0 5.12 0 10.24 0 15.36s0 10.24 0 13.653-1.707 18.773-1.707 27.307c0 5.12-1.707 8.533-1.707 13.653s-1.707 8.533-1.707 13.653c-3.413 18.773-6.827 35.84-11.947 52.907-25.6 64.853-63.147 121.173-110.933 158.72-47.787 39.253-102.4 59.733-151.893 69.973-25.6 5.12-49.493 6.827-71.68 8.533-23.893 1.707-44.373 1.707-63.147 1.707-37.547 0-68.267 0-87.040-1.707-10.24 0-17.067-1.707-22.187-3.413s-6.827-1.707-6.827-1.707l-3.413 3.413c0 1.707 10.24 6.827 30.72 10.24 20.48 5.12 49.493 8.533 88.747 11.947 18.773 1.707 40.96 3.413 63.147 3.413 23.893 1.707 49.493 1.707 76.8-1.707 54.613-6.827 117.76-25.6 174.080-66.56 13.653-10.24 27.307-22.187 40.96-34.133 6.827-6.827 11.947-13.653 18.773-20.48 5.12-6.827 11.947-13.653 17.067-22.187 22.187-30.72 39.253-66.56 51.2-104.107 5.12-18.773 10.24-39.253 13.653-58.027 1.707-5.12 1.707-10.24 3.413-15.36 0-5.12 1.707-10.24 1.707-15.36 1.707-10.24 1.707-20.48 3.413-30.72 0-10.24 0-20.48 1.707-30.72v-15.36c0-5.12 0-10.24 0-15.36 0-20.48-1.707-42.667-5.12-63.147-1.707-20.48-6.827-42.667-11.947-63.147s-10.24-42.667-18.773-63.147c-6.827-20.48-17.067-40.96-27.307-61.44s-22.187-39.253-35.84-58.027c-13.653-18.773-29.013-35.84-44.373-51.2-17.067-15.36-34.133-30.72-52.907-42.667-37.547-25.6-80.213-42.667-124.587-52.907-22.187-5.12-44.373-8.533-66.56-10.24s-44.373-1.707-66.56 0c-22.187 1.707-44.373 3.413-64.853 6.827-22.187 3.413-42.667 6.827-64.853 13.653-83.627 22.187-163.84 59.733-226.987 116.053-30.72 27.307-58.027 61.44-80.213 95.573-10.24 17.067-20.48 35.84-27.307 54.613-1.707 5.12-3.413 8.533-5.12 13.653s-3.413 10.24-5.12 13.653-5.12 18.773-8.533 29.013c-5.12 18.773-8.533 37.547-10.24 58.027-1.707 10.24-1.707 18.773-3.413 27.307v15.36c0 5.12 0 8.533 0 13.653 0 35.84 3.413 71.68 10.24 105.813s18.773 64.853 32.427 93.867c13.653 29.013 30.72 52.907 49.493 73.387s37.547 37.547 56.32 52.907c18.773 13.653 37.547 25.6 54.613 35.84 34.133 18.773 63.147 29.013 81.92 35.84s30.72 10.24 30.72 10.24l1.707-6.827zM63.147 430.933c0 0 0-3.413 0-8.533s0-13.653 1.707-23.893c1.707-20.48 6.827-52.907 18.773-90.453 3.413-10.24 6.827-18.773 10.24-29.013 1.707-5.12 5.12-10.24 6.827-15.36s5.12-10.24 8.533-15.36c11.947-22.187 25.6-42.667 44.373-63.147 35.84-40.96 85.333-76.8 146.773-100.693s133.12-35.84 209.92-39.253c10.24 0 18.773 0 29.013 0s18.773 0 29.013 0c10.24 0 20.48 0 30.72 0s20.48 1.707 30.72 1.707c5.12 0 10.24 0 15.36 1.707 5.12 0 10.24 1.707 15.36 1.707s10.24 1.707 15.36 1.707c5.12 1.707 10.24 1.707 15.36 1.707 20.48 3.413 39.253 10.24 59.733 17.067 18.773 6.827 37.547 17.067 56.32 27.307s35.84 23.893 51.2 39.253c30.72 29.013 58.027 66.56 75.093 105.813 37.547 80.213 47.787 174.080 34.133 262.827-6.827 44.373-18.773 87.040-35.84 128-8.533 20.48-17.067 40.96-29.013 59.733-10.24 18.773-22.187 37.547-35.84 54.613-25.6 34.133-56.32 63.147-92.16 87.040-17.067 11.947-35.84 22.187-54.613 30.72s-37.547 15.36-58.027 20.48c-18.773 5.12-39.253 8.533-59.733 11.947-20.48 1.707-39.253 3.413-59.733 3.413-40.96 0-80.213-1.707-117.76-6.827s-73.387-11.947-107.52-22.187c-32.427-11.947-63.147-25.6-90.453-42.667-52.907-35.84-90.453-85.333-114.347-134.827-11.947-25.6-20.48-49.493-27.307-71.68s-11.947-44.373-15.36-64.853c-1.707-10.24-3.413-18.773-3.413-27.307-1.707-8.533-1.707-17.067-3.413-25.6-1.707-15.36-1.707-29.013-1.707-39.253 1.707-23.893 1.707-35.84 1.707-35.84v0zM58.027 430.933c0 0 0 11.947 0 32.427 0 10.24 1.707 23.893 1.707 39.253 0 8.533 1.707 15.36 1.707 25.6 0 8.533 1.707 18.773 1.707 29.013 3.413 40.96 11.947 88.747 29.013 143.36 8.533 27.307 22.187 54.613 39.253 83.627 18.773 27.307 40.96 54.613 69.973 76.8s63.147 42.667 98.987 56.32c37.547 13.653 76.8 22.187 116.053 29.013 40.96 5.12 81.92 8.533 124.587 8.533 22.187 0 44.373-1.707 66.56-3.413 22.187-3.413 44.373-8.533 66.56-13.653 22.187-6.827 44.373-15.36 64.853-25.6s40.96-22.187 59.733-35.84c37.547-27.307 71.68-61.44 98.987-100.693s49.493-81.92 64.853-126.293c15.36-44.373 23.893-92.16 27.307-138.24 3.413-47.787 1.707-93.867-6.827-139.947-3.413-22.187-8.533-46.080-15.36-68.267s-15.36-44.373-25.6-64.853c-18.773-40.96-46.080-80.213-76.8-112.64s-68.267-59.733-109.227-78.507c-20.48-10.24-40.96-17.067-61.44-23.893-5.12-1.707-10.24-3.413-15.36-3.413-5.12-1.707-10.24-3.413-15.36-3.413-5.12-1.707-10.24-1.707-15.36-3.413h-8.533l-8.533-1.707c-40.96-6.827-83.627-8.533-122.88-10.24-80.213 0-158.72 15.36-225.28 46.080-32.427 15.36-61.44 34.133-87.040 56.32s-44.373 44.373-61.44 68.267c-32.427 47.787-51.2 95.573-61.44 133.12-10.24 39.253-13.653 71.68-15.36 92.16 0 10.24-1.707 18.773-1.707 23.893 1.707 6.827 1.707 10.24 1.707 10.24v0z" />
<glyph unicode="&#xe601;" glyph-name="facebook" d="M329.387 823.467c0 0-10.24-5.12-27.307-13.653-18.773-8.533-44.373-23.893-75.093-44.373-15.36-10.24-32.427-22.187-47.787-37.547-17.067-15.36-32.427-32.427-47.787-52.907-30.72-39.253-56.32-92.16-66.56-153.6-5.12-30.72-8.533-63.147-6.827-95.573 0-3.413 0-8.533 0-11.947v-3.413c0 0 0 0 0 0v-8.533c0-8.533 1.707-18.773 1.707-25.6 1.707-17.067 5.12-34.133 8.533-51.2 1.707-8.533 3.413-17.067 6.827-25.6 1.707-5.12 1.707-8.533 3.413-13.653s3.413-8.533 5.12-13.653c5.12-17.067 13.653-34.133 20.48-51.2 17.067-34.133 39.253-64.853 64.853-93.867 54.613-58.027 129.707-100.693 209.92-119.467 20.48-5.12 40.96-8.533 61.44-11.947s42.667-3.413 63.147-3.413c10.24 0 20.48 0 32.427 1.707 1.707 0 5.12 0 8.533 0h8.533c5.12 0 10.24 1.707 15.36 1.707 20.48 3.413 40.96 8.533 61.44 13.653 39.253 11.947 76.8 32.427 109.227 56.32 32.427 25.6 61.44 54.613 83.627 88.747 46.080 66.56 68.267 146.773 76.8 223.573 1.707 18.773 3.413 39.253 3.413 58.027 0 10.24 0 18.773 0 29.013 0 5.12 0 10.24 0 15.36s0 10.24 0 13.653-1.707 18.773-1.707 27.307c0 5.12-1.707 8.533-1.707 13.653s-1.707 8.533-1.707 13.653c-3.413 17.067-6.827 35.84-11.947 51.2-20.48 66.56-58.027 122.88-105.813 160.427-47.787 39.253-102.4 59.733-151.893 69.973-25.6 5.12-47.787 6.827-71.68 8.533-22.187 1.707-44.373 1.707-63.147 1.707-37.547 0-66.56 0-87.040-1.707-10.24 0-17.067-1.707-22.187-3.413s-6.827-1.707-6.827-1.707l-3.413 3.413c0 1.707 10.24 6.827 30.72 10.24 22.187 5.12 52.907 8.533 90.453 11.947 18.773 1.707 40.96 3.413 63.147 3.413 23.893 1.707 49.493 1.707 76.8-1.707 54.613-6.827 116.053-25.6 172.373-66.56 13.653-10.24 27.307-22.187 40.96-34.133 6.827-6.827 11.947-13.653 18.773-20.48 5.12-6.827 11.947-13.653 17.067-22.187 22.187-30.72 39.253-66.56 51.2-104.107 5.12-18.773 10.24-37.547 13.653-58.027 0-5.12 1.707-10.24 1.707-15.36s1.707-10.24 1.707-15.36 1.707-20.48 3.413-30.72c0-10.24 0-20.48 1.707-29.013v-15.36c0-5.12 0-10.24 0-15.36 0-20.48-1.707-40.96-5.12-63.147-1.707-20.48-6.827-42.667-11.947-63.147s-10.24-42.667-18.773-63.147c-6.827-20.48-17.067-40.96-27.307-61.44s-22.187-39.253-35.84-56.32c-13.653-18.773-27.307-35.84-44.373-51.2s-34.133-30.72-52.907-42.667c-37.547-25.6-80.213-42.667-124.587-52.907-22.187-5.12-44.373-8.533-66.56-10.24s-44.373-1.707-66.56 0c-22.187 1.707-44.373 3.413-64.853 6.827-22.187 3.413-42.667 6.827-63.147 13.653-83.627 22.187-162.133 59.733-225.28 116.053-30.72 27.307-58.027 59.733-80.213 95.573-10.24 17.067-20.48 35.84-27.307 54.613-1.707 5.12-3.413 8.533-5.12 13.653s-3.413 10.24-5.12 13.653-5.12 18.773-8.533 29.013c-5.12 18.773-8.533 37.547-10.24 56.32 0 10.24 0 18.773 0 27.307v15.36c0 5.12 0 8.533 0 13.653 0 35.84 3.413 71.68 10.24 105.813s18.773 64.853 32.427 92.16c11.947 27.307 29.013 51.2 47.787 71.68s37.547 37.547 56.32 52.907c18.773 13.653 37.547 25.6 54.613 34.133 34.133 18.773 63.147 29.013 81.92 35.84s29.013 10.24 29.013 10.24l3.413-5.12zM63.147 434.347c0 0 0-3.413 0-8.533s0-13.653 1.707-23.893c1.707-22.187 5.12-52.907 18.773-90.453 3.413-10.24 6.827-18.773 10.24-29.013 1.707-5.12 5.12-10.24 6.827-15.36s5.12-10.24 8.533-15.36c11.947-20.48 25.6-42.667 42.667-63.147 35.84-40.96 85.333-76.8 146.773-100.693s131.413-35.84 208.213-39.253c10.24 0 18.773 0 29.013 0s18.773 0 29.013 0c10.24 0 20.48 0 29.013 0 10.24 0 20.48 1.707 30.72 1.707 5.12 0 10.24 0 15.36 1.707 5.12 0 10.24 1.707 15.36 1.707s10.24 1.707 15.36 1.707c5.12 1.707 10.24 1.707 15.36 1.707 20.48 3.413 39.253 10.24 59.733 17.067 18.773 6.827 37.547 17.067 56.32 27.307s34.133 23.893 51.2 39.253c30.72 29.013 56.32 66.56 75.093 105.813 37.547 80.213 47.787 174.080 34.133 261.12-6.827 44.373-18.773 87.040-35.84 128-8.533 20.48-17.067 39.253-29.013 58.027-10.24 18.773-22.187 37.547-35.84 54.613-25.6 34.133-56.32 63.147-90.453 87.040-17.067 11.947-35.84 22.187-52.907 30.72-18.773 8.533-37.547 15.36-56.32 20.48s-39.253 8.533-58.027 11.947c-20.48 1.707-39.253 3.413-58.027 3.413-40.96 0-80.213-1.707-117.76-6.827s-73.387-11.947-105.813-22.187c-32.427-10.24-63.147-25.6-90.453-42.667-52.907-35.84-90.453-85.333-114.347-134.827-11.947-23.893-20.48-49.493-27.307-71.68s-11.947-44.373-13.653-64.853c-1.707-10.24-3.413-18.773-3.413-27.307-1.707-8.533-1.707-17.067-3.413-25.6-1.707-15.36-1.707-29.013-1.707-39.253-5.12-22.187-5.12-32.427-5.12-32.427v0zM58.027 434.347c0 0 0 11.947 0 32.427 0 10.24 1.707 23.893 1.707 39.253 0 8.533 1.707 15.36 1.707 25.6 0 8.533 1.707 18.773 1.707 29.013 3.413 39.253 11.947 88.747 29.013 143.36 8.533 27.307 22.187 54.613 39.253 81.92s40.96 54.613 69.973 76.8c29.013 22.187 61.44 40.96 98.987 56.32 35.84 13.653 75.093 22.187 116.053 29.013 40.96 5.12 81.92 8.533 122.88 8.533 22.187 0 44.373-1.707 66.56-3.413 22.187-3.413 44.373-8.533 66.56-13.653 22.187-6.827 42.667-15.36 64.853-25.6 20.48-10.24 40.96-22.187 59.733-35.84 37.547-27.307 71.68-61.44 98.987-100.693s49.493-81.92 63.147-126.293c15.36-44.373 23.893-90.453 27.307-138.24 3.413-46.080 1.707-93.867-6.827-139.947-3.413-22.187-8.533-46.080-15.36-66.56-6.827-22.187-15.36-44.373-25.6-64.853-18.773-40.96-46.080-78.507-76.8-112.64-30.72-32.427-68.267-59.733-109.227-78.507-20.48-10.24-40.96-17.067-61.44-23.893-5.12-1.707-10.24-3.413-15.36-3.413-5.12-1.707-10.24-3.413-15.36-3.413-5.12-1.707-10.24-1.707-15.36-3.413h-8.533l-8.533-1.707c-40.96-6.827-81.92-8.533-122.88-10.24-80.213 0-158.72 15.36-223.573 46.080-32.427 15.36-61.44 34.133-85.333 56.32s-44.373 44.373-61.44 68.267c-32.427 47.787-49.493 95.573-59.733 133.12-10.24 39.253-13.653 69.973-15.36 92.16 0 10.24-1.707 18.773-1.707 23.893 0 6.827 0 10.24 0 10.24v0zM520.533 548.693c-1.707 8.533-1.707 15.36-3.413 23.893l-3.413 23.893c0 3.413 0 8.533 0 13.653s1.707 8.533 1.707 13.653c1.707 5.12 3.413 10.24 6.827 13.653 3.413 5.12 6.827 8.533 11.947 11.947s10.24 5.12 15.36 6.827c5.12 1.707 10.24 1.707 15.36 3.413l71.68 5.12-20.48-20.48c-1.707 13.653-1.707 29.013-1.707 44.373s-1.707 30.72-1.707 46.080l23.893-23.893c-15.36 0-29.013 0-44.373-1.707-15.36 0-29.013 0-44.373 0h-20.48c-1.707 0-3.413 0-5.12 0h-3.413c-3.413 0-5.12 0-8.533-1.707-3.413 0-5.12-1.707-8.533-1.707l-13.653-6.827c-1.707-1.707-5.12-3.413-6.827-3.413-1.707-1.707-3.413-3.413-5.12-5.12s-3.413-3.413-5.12-5.12c-1.707-1.707-3.413-5.12-5.12-6.827-1.707-3.413-3.413-5.12-5.12-8.533s-3.413-5.12-3.413-8.533l-3.413-8.533c-1.707-6.827-3.413-11.947-5.12-18.773s-1.707-13.653-3.413-20.48c0-6.827-1.707-13.653-1.707-22.187-1.707-15.36-1.707-29.013-3.413-44.373v-1.707c0-5.12-5.12-10.24-10.24-10.24v0c-18.773 1.707-37.547 1.707-56.32 1.707l8.533 8.533c0-15.36 0-30.72 0-46.080s0-30.72 1.707-46.080l-10.24 11.947 58.027 3.413c6.827 0 11.947-5.12 11.947-10.24v0-1.707c1.707-23.893 3.413-46.080 5.12-69.973l5.12-69.973 1.707-35.84c0-11.947 1.707-23.893 1.707-35.84 1.707-23.893 1.707-46.080 1.707-69.973l-27.307 27.307c30.72 1.707 61.44 1.707 92.16 1.707l-29.013-30.72c0 23.893-1.707 46.080-1.707 69.973 0 11.947 0 23.893 0 35.84s0 23.893 0 35.84 1.707 46.080 1.707 69.973c0 23.893 1.707 46.080 3.413 69.973v1.707c0 13.653 11.947 23.893 25.6 23.893 15.36 0 30.72-1.707 46.080-1.707l46.080-1.707-20.48-18.773 10.24 46.080c3.413 15.36 6.827 30.72 10.24 46.080l13.653-17.067c-17.067 1.707-35.84 3.413-52.907 5.12l-54.613 6.827c0 0 0 1.707-1.707 3.413v0zM527.36 550.4l23.893 3.413 27.307 3.413c17.067 1.707 35.84 3.413 52.907 5.12 6.827 0 13.653-5.12 13.653-11.947 0 0 0-1.707 0-1.707v-1.707c-1.707-15.36-1.707-30.72-3.413-47.787l-3.413-47.787c-1.707-10.24-8.533-17.067-18.773-17.067h-3.413l-46.080-3.413c-15.36-1.707-30.72-1.707-46.080-1.707l25.6 25.6c1.707-23.893 1.707-46.080 3.413-69.973 0-23.893 1.707-46.080 1.707-69.973 0-11.947 0-23.893 0-35.84s0-23.893 0-35.84 0-46.080-1.707-69.973v-1.707c0-15.36-13.653-29.013-29.013-27.307-30.72 0-61.44 1.707-92.16 1.707h-1.707c-13.653 0-25.6 11.947-25.6 27.307 0 23.893 1.707 46.080 1.707 69.973 0 11.947 0 23.893 1.707 35.84l1.707 35.84 5.12 69.973c1.707 23.893 3.413 46.080 5.12 69.973l11.947-11.947-58.027 3.413c-5.12 0-8.533 5.12-8.533 10.24v0c0 15.36 1.707 30.72 1.707 46.080s0 30.72 0 46.080c0 5.12 3.413 8.533 8.533 8.533v0c18.773 0 37.547 1.707 56.32 1.707l-10.24-10.24c0 15.36-1.707 29.013-3.413 44.373l-1.707 22.187c0 6.827 0 15.36 0 23.893 0 3.413 0 8.533 0 11.947l3.413 23.893c1.707 3.413 1.707 8.533 3.413 11.947 3.413 8.533 6.827 17.067 10.24 23.893 1.707 3.413 5.12 6.827 8.533 11.947 3.413 3.413 6.827 6.827 10.24 10.24s6.827 6.827 10.24 8.533c3.413 1.707 8.533 5.12 11.947 6.827s8.533 3.413 11.947 5.12c5.12 1.707 8.533 3.413 13.653 3.413 3.413 1.707 8.533 1.707 13.653 3.413l6.827 1.707c1.707 0 3.413 0 5.12 0h22.187c15.36 0 29.013 0 44.373 0s29.013 0 44.373-1.707h1.707c13.653 0 23.893-11.947 23.893-23.893v0c0-15.36-1.707-30.72-1.707-46.080s-1.707-30.72-1.707-46.080v-3.413c0-10.24-10.24-18.773-20.48-17.067l-71.68 5.12c-3.413 0-6.827 0-8.533 0-3.413 0-5.12 0-6.827-1.707s-3.413-1.707-6.827-3.413c-1.707-1.707-3.413-3.413-5.12-6.827-1.707-1.707-1.707-5.12-3.413-8.533s-1.707-6.827-1.707-10.24l-3.413-23.893c-1.707-10.24-1.707-17.067-3.413-23.893z" />
<glyph unicode="&#xe602;" glyph-name="instagram" d="M329.387 823.467c0 0-10.24-5.12-27.307-13.653-18.773-8.533-44.373-23.893-75.093-44.373-15.36-10.24-32.427-22.187-47.787-37.547-17.067-15.36-32.427-32.427-47.787-52.907-30.72-39.253-56.32-92.16-66.56-153.6-5.12-30.72-8.533-63.147-6.827-95.573 0-3.413 0-8.533 0-11.947v-3.413c0 0 0 0 0 0v-8.533c0-8.533 1.707-18.773 1.707-25.6 1.707-17.067 5.12-34.133 8.533-51.2 1.707-8.533 3.413-17.067 6.827-25.6 1.707-5.12 1.707-8.533 3.413-13.653 1.707-3.413 3.413-8.533 5.12-13.653 5.12-17.067 13.653-34.133 20.48-51.2 17.067-34.133 39.253-64.853 64.853-93.867 54.613-58.027 129.707-100.693 209.92-119.467 20.48-5.12 40.96-8.533 61.44-11.947s42.667-3.413 63.147-3.413c10.24 0 20.48 0 32.427 1.707 1.707 0 5.12 0 8.533 0h8.533c5.12 0 10.24 1.707 15.36 1.707 20.48 3.413 40.96 8.533 61.44 13.653 39.253 11.947 76.8 32.427 109.227 56.32 32.427 25.6 59.733 54.613 83.627 88.747 46.080 66.56 68.267 146.773 76.8 223.573 5.12 18.773 5.12 37.547 5.12 58.027 0 10.24 0 18.773 0 29.013 0 5.12 0 10.24 0 15.36s0 10.24 0 13.653-1.707 18.773-1.707 27.307c0 5.12-1.707 8.533-1.707 13.653s-1.707 8.533-1.707 13.653c-3.413 17.067-6.827 35.84-11.947 51.2-20.48 66.56-58.027 122.88-105.813 160.427-47.787 39.253-102.4 59.733-151.893 69.973-25.6 5.12-47.787 6.827-71.68 8.533-22.187 1.707-44.373 1.707-63.147 1.707-37.547 0-66.56 0-87.040-1.707-10.24 0-17.067-1.707-22.187-3.413s-6.827-1.707-6.827-1.707l-3.413 3.413c0 1.707 10.24 6.827 30.72 10.24 20.48 5.12 51.2 8.533 88.747 11.947 18.773 1.707 40.96 3.413 63.147 3.413 23.893 1.707 49.493 1.707 76.8-1.707 54.613-6.827 116.053-25.6 172.373-66.56 13.653-10.24 27.307-22.187 40.96-34.133 6.827-6.827 11.947-13.653 18.773-20.48 5.12-6.827 11.947-13.653 17.067-22.187 22.187-30.72 39.253-66.56 51.2-104.107 5.12-18.773 10.24-37.547 13.653-58.027 0-5.12 1.707-10.24 1.707-15.36s1.707-10.24 1.707-15.36 1.707-20.48 3.413-30.72c0-10.24 0-20.48 1.707-29.013v-15.36c0-5.12 0-10.24 0-15.36 0-20.48-1.707-40.96-5.12-63.147-1.707-20.48-6.827-42.667-11.947-63.147s-10.24-42.667-18.773-63.147c-6.827-20.48-17.067-40.96-27.307-61.44s-22.187-39.253-35.84-56.32c-13.653-18.773-27.307-35.84-44.373-51.2s-34.133-30.72-52.907-42.667c-37.547-25.6-80.213-42.667-124.587-52.907-22.187-5.12-44.373-8.533-66.56-10.24s-44.373-1.707-66.56 0c-22.187 1.707-44.373 3.413-64.853 6.827-22.187 3.413-42.667 6.827-63.147 13.653-83.627 22.187-162.133 59.733-225.28 116.053-30.72 27.307-58.027 59.733-80.213 95.573-10.24 17.067-20.48 35.84-27.307 54.613-1.707 5.12-3.413 8.533-5.12 13.653s-3.413 10.24-5.12 13.653-5.12 18.773-8.533 29.013c-5.12 18.773-8.533 37.547-10.24 56.32 0 10.24 0 18.773 0 27.307v15.36c0 5.12 0 8.533 0 13.653 0 35.84 3.413 71.68 10.24 105.813s18.773 64.853 32.427 92.16c11.947 27.307 29.013 51.2 47.787 71.68s37.547 37.547 56.32 52.907c18.773 13.653 37.547 25.6 54.613 34.133 34.133 18.773 63.147 29.013 81.92 35.84s29.013 10.24 29.013 10.24l3.413-5.12zM63.147 434.347c0 0 0-3.413 0-8.533s0-13.653 1.707-23.893c1.707-22.187 5.12-52.907 18.773-90.453 3.413-10.24 6.827-18.773 10.24-29.013 1.707-5.12 5.12-10.24 6.827-15.36s5.12-10.24 8.533-15.36c11.947-20.48 25.6-42.667 42.667-63.147 35.84-40.96 85.333-76.8 146.773-100.693s131.413-35.84 208.213-39.253c10.24 0 18.773 0 29.013 0s18.773 0 29.013 0c10.24 0 20.48 0 29.013 0 10.24 0 20.48 1.707 30.72 1.707 5.12 0 10.24 0 15.36 1.707 5.12 0 10.24 1.707 15.36 1.707s10.24 1.707 15.36 1.707c5.12 1.707 10.24 1.707 15.36 1.707 20.48 3.413 39.253 10.24 59.733 17.067 18.773 6.827 37.547 17.067 56.32 27.307s34.133 23.893 51.2 39.253c30.72 29.013 56.32 66.56 75.093 105.813 37.547 80.213 47.787 174.080 34.133 261.12-6.827 44.373-18.773 87.040-35.84 128-8.533 20.48-17.067 39.253-29.013 58.027-10.24 18.773-22.187 37.547-35.84 54.613-25.6 34.133-56.32 63.147-90.453 87.040-17.067 11.947-35.84 22.187-52.907 30.72-18.773 8.533-37.547 15.36-56.32 20.48s-39.253 8.533-58.027 11.947c-20.48 1.707-39.253 3.413-58.027 3.413-40.96 0-80.213-1.707-117.76-6.827s-73.387-11.947-105.813-22.187c-32.427-10.24-63.147-25.6-90.453-42.667-52.907-35.84-90.453-85.333-114.347-134.827-11.947-23.893-20.48-49.493-27.307-71.68s-11.947-44.373-13.653-64.853c-1.707-10.24-3.413-18.773-3.413-27.307-1.707-8.533-1.707-17.067-3.413-25.6-1.707-15.36-1.707-29.013-1.707-39.253-5.12-22.187-5.12-32.427-5.12-32.427v0zM58.027 434.347c0 0 0 11.947 0 32.427 0 10.24 1.707 23.893 1.707 39.253 0 8.533 1.707 15.36 1.707 25.6 0 8.533 1.707 18.773 1.707 29.013 3.413 39.253 11.947 88.747 29.013 143.36 8.533 27.307 22.187 54.613 39.253 81.92s40.96 54.613 69.973 76.8c29.013 22.187 61.44 40.96 98.987 56.32 35.84 13.653 75.093 22.187 116.053 29.013 40.96 5.12 81.92 8.533 122.88 8.533 22.187 0 44.373-1.707 66.56-3.413 22.187-3.413 44.373-8.533 66.56-13.653 22.187-6.827 42.667-15.36 64.853-25.6 20.48-10.24 40.96-22.187 59.733-35.84 37.547-27.307 71.68-61.44 98.987-100.693s49.493-81.92 63.147-126.293c15.36-44.373 23.893-90.453 27.307-138.24 3.413-46.080 1.707-93.867-6.827-139.947-3.413-22.187-8.533-46.080-15.36-66.56-6.827-22.187-15.36-44.373-25.6-64.853-18.773-40.96-46.080-78.507-76.8-112.64-30.72-32.427-68.267-59.733-109.227-78.507-20.48-10.24-40.96-17.067-61.44-23.893-5.12-1.707-10.24-3.413-15.36-3.413-5.12-1.707-10.24-3.413-15.36-3.413-5.12-1.707-10.24-1.707-15.36-3.413h-8.533l-8.533-1.707c-40.96-6.827-81.92-8.533-122.88-10.24-80.213 0-158.72 15.36-223.573 46.080-32.427 15.36-61.44 34.133-85.333 56.32s-44.373 44.373-61.44 68.267c-32.427 47.787-49.493 95.573-59.733 133.12-10.24 39.253-13.653 69.973-15.36 92.16 0 10.24-1.707 18.773-1.707 23.893 0 6.827 0 10.24 0 10.24v0zM387.413 702.293c10.24 1.707 20.48 3.413 30.72 5.12s20.48 3.413 30.72 3.413 40.96 3.413 61.44 5.12c20.48 1.707 40.96 1.707 61.44 1.707s40.96 0 61.44 0c20.48-1.707 40.96-3.413 61.44-5.12l15.36-1.707h8.533c3.413 0 6.827-1.707 10.24-3.413 11.947-5.12 20.48-15.36 25.6-25.6 1.707-5.12 3.413-11.947 3.413-17.067s0-10.24 0-15.36 0-20.48 0-30.72 1.707-40.96 3.413-61.44c0-5.12-3.413-10.24-8.533-10.24h-1.707l-39.253-3.413c-13.653-1.707-25.6-1.707-39.253-3.413-25.6-1.707-51.2-3.413-76.8-3.413-5.12 0-8.533 1.707-11.947 3.413l-1.707 1.707c-10.24 8.533-23.893 15.36-35.84 20.48-6.827 1.707-13.653 3.413-20.48 5.12-3.413 0-6.827 1.707-10.24 1.707h-10.24c0 0 0 0 0 0h-11.947c-3.413 0-6.827 0-10.24-1.707-6.827-1.707-13.653-3.413-20.48-5.12s-13.653-5.12-18.773-8.533c-6.827-3.413-11.947-6.827-17.067-11.947v-3.413c-3.413-3.413-6.827-3.413-11.947-3.413-8.533 0-18.773 1.707-27.307 1.707h-3.413c-8.533 0-15.36 8.533-15.36 17.067 1.707 11.947 1.707 23.893 3.413 35.84s1.707 23.893 3.413 35.84c1.707 11.947 3.413 23.893 5.12 35.84s3.413 23.893 5.12 35.84c0 3.413 0 5.12 1.707 5.12s1.707-1.707 1.707-1.707c1.707-11.947 3.413-23.893 5.12-35.84s3.413-23.893 5.12-35.84c1.707-11.947 1.707-23.893 3.413-35.84s1.707-23.893 3.413-35.84l-18.773 18.773c8.533 0 18.773 1.707 27.307 1.707l-13.653-5.12c13.653 13.653 29.013 23.893 47.787 30.72 8.533 3.413 18.773 6.827 27.307 8.533 5.12 1.707 10.24 1.707 13.653 1.707h29.013c5.12 0 10.24-1.707 13.653-1.707 10.24-1.707 18.773-5.12 27.307-8.533 17.067-6.827 34.133-18.773 47.787-30.72l-13.653 5.12c25.6-1.707 51.2-1.707 76.8-3.413 13.653 0 25.6-1.707 39.253-3.413l39.253-3.413-10.24-10.24c1.707 20.48 3.413 40.96 3.413 61.44 0 10.24 0 20.48 0 30.72 0 5.12 0 10.24 0 15.36 0 3.413-1.707 8.533-3.413 11.947-3.413 6.827-11.947 11.947-18.773 13.653-1.707 0-3.413 0-5.12 0s-1.707 0-3.413 0v0 0c0 0 0 0 0 0v0h-3.413l-13.653-3.413c-20.48-1.707-40.96-5.12-61.44-5.12-20.48-1.707-40.96-1.707-61.44 0-20.48 0-40.96 1.707-61.44 1.707-20.48 1.707-40.96 3.413-61.44 5.12-10.24 1.707-20.48 3.413-30.72 3.413-10.24 1.707-20.48 3.413-30.72 5.12-1.707 0-1.707 1.707 0 5.12-1.707-1.707-1.707 0 0 0zM541.013 207.36c-11.947-1.707-23.893-5.12-37.547-5.12-11.947-1.707-23.893-3.413-37.547-5.12-23.893-3.413-49.493-5.12-73.387-5.12-23.893-1.707-49.493-1.707-73.387-1.707-6.827 0-11.947 0-18.773 0h-11.947c-5.12 1.707-8.533 3.413-13.653 5.12-17.067 8.533-27.307 25.6-27.307 42.667 0 1.707 0 5.12 0 6.827s0 3.413 0 5.12l1.707 8.533 1.707 18.773c1.707 11.947 1.707 23.893 3.413 37.547 1.707 23.893 1.707 49.493 1.707 73.387 0 11.947 0 23.893-1.707 37.547 0 11.947-1.707 23.893-3.413 37.547l-3.413 37.547c-1.707 11.947-1.707 23.893-3.413 37.547 0 8.533 6.827 17.067 15.36 17.067v0h1.707c23.893 1.707 46.080 1.707 69.973 3.413s46.080 1.707 69.973 1.707c11.947 0 22.187-10.24 22.187-22.187 0-5.12-1.707-10.24-5.12-13.653v0c-6.827-8.533-11.947-18.773-15.36-27.307-3.413-10.24-6.827-20.48-8.533-30.72 0-3.413 0-5.12 0-8.533v-1.707c0 0 0-1.707 0 1.707v0 0 0-6.827c0-6.827 0-11.947 1.707-17.067 0-1.707 1.707-5.12 1.707-8.533v-3.413l1.707-3.413c0-3.413 1.707-5.12 1.707-8.533 1.707-1.707 1.707-5.12 3.413-8.533s1.707-5.12 3.413-6.827c1.707-1.707 1.707-5.12 3.413-6.827s3.413-5.12 5.12-6.827c1.707-1.707 3.413-5.12 5.12-6.827s3.413-5.12 5.12-6.827c1.707-1.707 3.413-5.12 6.827-6.827 1.707-1.707 5.12-3.413 6.827-5.12s5.12-3.413 6.827-5.12c1.707-1.707 5.12-3.413 6.827-5.12s5.12-3.413 8.533-5.12c3.413-1.707 5.12-3.413 8.533-3.413l8.533-3.413c3.413-1.707 5.12-1.707 8.533-3.413 3.413 0 5.12-1.707 8.533-3.413 6.827-1.707 11.947-3.413 18.773-3.413 1.707 0 1.707-1.707 1.707-1.707 0-1.707 0-1.707-1.707-1.707v0c-6.827-1.707-13.653-1.707-20.48-3.413-3.413 0-6.827 0-10.24 0s-6.827 0-10.24 0l-10.24 1.707c-3.413 0-6.827 1.707-10.24 1.707s-6.827 1.707-10.24 3.413c-3.413 1.707-6.827 1.707-10.24 3.413s-6.827 3.413-10.24 5.12c-3.413 1.707-6.827 3.413-8.533 5.12-3.413 1.707-5.12 3.413-8.533 6.827-3.413 1.707-5.12 3.413-8.533 6.827-3.413 1.707-5.12 5.12-8.533 6.827-1.707 3.413-5.12 5.12-6.827 8.533s-5.12 5.12-6.827 8.533c-1.707 3.413-5.12 5.12-6.827 8.533s-3.413 6.827-5.12 10.24c-1.707 3.413-3.413 6.827-5.12 10.24l-3.413 10.24c-1.707 3.413-1.707 6.827-3.413 10.24-1.707 8.533-3.413 17.067-3.413 22.187v11.947c0 3.413 0 6.827 0 11.947 0 6.827 1.707 15.36 3.413 22.187s3.413 15.36 6.827 22.187c5.12 13.653 13.653 27.307 22.187 39.253l17.067-37.547c-23.893 0-46.080 1.707-69.973 1.707-23.893 1.707-46.080 1.707-69.973 3.413l17.067 17.067c-1.707-11.947-1.707-23.893-3.413-37.547l-3.413-37.547c-1.707-11.947-1.707-23.893-3.413-37.547-1.707-11.947-1.707-23.893-1.707-37.547 0-23.893 0-49.493 1.707-73.387 0-11.947 1.707-23.893 3.413-37.547l5.12-17.067 1.707-8.533c0-1.707 0-3.413 0-5.12s0-1.707 0-3.413c1.707-6.827 8.533-11.947 13.653-15.36 1.707 0 3.413 0 5.12-1.707 0 0 0 0 0 0v0h3.413c1.707 0-1.707 0 0 0v0 0h1.707c6.827 0 11.947 0 18.773 0 23.893 0 49.493 0 73.387-1.707s49.493-3.413 73.387-5.12c11.947-1.707 23.893-3.413 37.547-5.12 11.947-1.707 23.893-3.413 37.547-5.12 1.707 0 1.707-1.707 1.707-1.707 1.707 0 0 0 0 0zM513.707 321.707c5.12 1.707 11.947 3.413 17.067 5.12s10.24 5.12 15.36 6.827c3.413 1.707 5.12 3.413 6.827 5.12s5.12 3.413 6.827 5.12l13.653 10.24c1.707 1.707 3.413 3.413 6.827 5.12 1.707 1.707 3.413 3.413 5.12 5.12l5.12 6.827c1.707 1.707 3.413 5.12 5.12 6.827s3.413 5.12 5.12 6.827c1.707 1.707 3.413 5.12 3.413 6.827 1.707 5.12 5.12 10.24 6.827 15.36s3.413 10.24 5.12 15.36c1.707 5.12 3.413 10.24 3.413 15.36s1.707 10.24 1.707 15.36c0 0 0 1.707 0 1.707v1.707c0 1.707 0 3.413 0 5.12s0 5.12 0 6.827c-1.707 20.48-6.827 42.667-18.773 61.44l-1.707 3.413c-3.413 5.12-1.707 11.947 3.413 15.36 1.707 1.707 5.12 1.707 6.827 1.707 11.947-1.707 23.893-1.707 34.133-3.413 11.947-1.707 23.893-1.707 34.133-1.707 23.893 0 46.080 0 69.973 1.707 3.413 0 6.827-3.413 8.533-6.827v-1.707c0-10.24 1.707-22.187 3.413-32.427l3.413-32.427c1.707-10.24 1.707-22.187 3.413-32.427s1.707-22.187 1.707-32.427l3.413-64.853c1.707-22.187 1.707-44.373 1.707-64.853v-34.133c-1.707-18.773-11.947-34.133-25.6-44.373-6.827-5.12-15.36-8.533-23.893-10.24-1.707 0-3.413 0-6.827 0h-15.36c-10.24 0-22.187 1.707-32.427 1.707s-22.187 1.707-32.427 3.413c-10.24 1.707-22.187 1.707-32.427 3.413s-22.187 3.413-32.427 3.413c-10.24 1.707-22.187 3.413-32.427 5.12-1.707 0-1.707 1.707-1.707 1.707 0 1.707 1.707 1.707 1.707 1.707 10.24 1.707 22.187 3.413 32.427 5.12s22.187 3.413 32.427 3.413c10.24 1.707 22.187 1.707 32.427 3.413s22.187 1.707 32.427 3.413c10.24 1.707 22.187 1.707 32.427 1.707h11.947c0 0 1.707 0 1.707 0 1.707 0 5.12 1.707 6.827 3.413 3.413 3.413 5.12 8.533 5.12 11.947v30.72c0 22.187 0 44.373 1.707 64.853l3.413 64.853c0 10.24 1.707 22.187 1.707 32.427s1.707 22.187 3.413 32.427l3.413 32.427c1.707 10.24 1.707 22.187 3.413 32.427l8.533-8.533c-23.893 1.707-46.080 1.707-69.973 1.707-11.947 0-23.893-1.707-34.133-1.707-11.947-1.707-23.893-1.707-34.133-3.413l10.24 20.48c8.533-10.24 17.067-20.48 23.893-32.427s10.24-25.6 13.653-39.253c0-3.413 1.707-6.827 1.707-10.24 0-1.707 0-3.413 0-5.12v-1.707c0-1.707 0-1.707 0-3.413 0-6.827 0-13.653-1.707-20.48s-3.413-13.653-5.12-20.48c-1.707-6.827-5.12-13.653-8.533-18.773-3.413-6.827-6.827-11.947-10.24-18.773-1.707-3.413-3.413-5.12-6.827-8.533-1.707-3.413-5.12-5.12-6.827-8.533-1.707-1.707-5.12-5.12-6.827-6.827l-8.533-6.827c-1.707-1.707-5.12-3.413-8.533-5.12s-5.12-3.413-8.533-5.12l-13.653-3.413-8.533-3.413c-3.413-1.707-6.827-1.707-10.24-3.413-3.413 0-6.827-1.707-10.24-1.707l-10.24-1.707c-3.413 0-6.827 0-10.24 0-6.827 0-11.947 0-18.773 1.707-1.707 0-1.707 1.707-1.707 1.707 1.707 0 1.707 0 3.413 1.707v0zM421.547 480.427c0 0 0-1.707 0-6.827 0-3.413 1.707-10.24 1.707-17.067v-1.707c0 0 0 0 0 0 0-1.707 0-1.707 0-3.413s1.707-5.12 1.707-6.827c1.707-3.413 3.413-6.827 5.12-11.947 3.413-8.533 10.24-17.067 17.067-23.893 6.827-8.533 17.067-13.653 27.307-20.48 5.12-3.413 10.24-5.12 17.067-8.533 3.413-1.707 6.827-1.707 10.24-3.413h1.707c0 0 0 0 0 0v0 0h3.413c1.707 0 5.12 0 6.827 0 6.827 0 15.36 0 22.187 1.707s15.36 6.827 20.48 11.947c6.827 5.12 11.947 11.947 15.36 18.773s5.12 15.36 6.827 22.187c0 8.533 0 15.36 0 22.187 0 1.707-1.707 8.533-1.707 10.24l-1.707 5.12c0 1.707-1.707 3.413-1.707 5.12-5.12 11.947-13.653 23.893-23.893 30.72s-20.48 11.947-30.72 15.36c-5.12 1.707-10.24 1.707-17.067 1.707h-5.12c-1.707 0-1.707 0-3.413 0-3.413 0-5.12 0-8.533 0-10.24-1.707-20.48-5.12-27.307-8.533-8.533-5.12-15.36-10.24-20.48-13.653-5.12-5.12-8.533-10.24-11.947-11.947-1.707-5.12-3.413-6.827-3.413-6.827v0c0-1.707-1.707-1.707-3.413 0 0 0-1.707 1.707-1.707 1.707s0 1.707 0 6.827c0 5.12 1.707 10.24 5.12 18.773s8.533 17.067 17.067 27.307c8.533 8.533 20.48 18.773 35.84 23.893 3.413 1.707 6.827 3.413 11.947 3.413 1.707 0 5.12 1.707 6.827 1.707h13.653c1.707 0 5.12 0 6.827 0 5.12 0 8.533 0 13.653-1.707 18.773-3.413 37.547-11.947 52.907-25.6s25.6-32.427 30.72-52.907c0-3.413 1.707-5.12 1.707-8.533s0-5.12 0-8.533v-13.653c-1.707-10.24-5.12-20.48-8.533-29.013-5.12-8.533-10.24-17.067-15.36-23.893-6.827-6.827-13.653-13.653-20.48-20.48-6.827-5.12-15.36-10.24-23.893-15.36-8.533-3.413-17.067-8.533-25.6-10.24-17.067-5.12-37.547-5.12-54.613 1.707s-30.72 18.773-39.253 30.72c-8.533 13.653-13.653 27.307-15.36 39.253 0 3.413 0 6.827-1.707 8.533 0 3.413 0 6.827 0 8.533 0 3.413 0 5.12 1.707 6.827 0 1.707 0 1.707 0 3.413s0 0 0 0v0 0 0 0 1.707c1.707 8.533 5.12 13.653 6.827 18.773 1.707 3.413 3.413 5.12 3.413 5.12v0c0 3.413 0 3.413 1.707 1.707 0 1.707 0 0 0 0zM505.173 528.213c0 0 1.707 0 5.12 0 1.707 0 3.413 0 6.827 0s5.12 0 8.533 0c6.827-1.707 15.36-1.707 23.893-5.12 10.24-3.413 20.48-8.533 29.013-18.773s15.36-23.893 15.36-39.253c0-1.707 0-3.413 0-5.12v-5.12c0 0 0-1.707 0-1.707v0 0 0c0-3.413-1.707-5.12-3.413-10.24-1.707-8.533-6.827-15.36-10.24-22.187-8.533-11.947-20.48-22.187-32.427-32.427-6.827-5.12-13.653-8.533-20.48-11.947-3.413-1.707-6.827-3.413-11.947-3.413-1.707 0-3.413-1.707-5.12-1.707h-5.12c0 0 0 0 0 0-3.413 0-6.827-1.707-11.947-1.707s-8.533 0-13.653 0c-8.533 1.707-17.067 3.413-25.6 8.533-15.36 8.533-27.307 22.187-35.84 37.547-3.413 8.533-6.827 15.36-8.533 23.893 0 3.413 0 8.533-1.707 11.947v6.827c0 1.707 0 3.413 0 5.12 0 5.12 1.707 8.533 3.413 11.947s1.707 6.827 3.413 10.24c3.413 6.827 6.827 11.947 11.947 17.067 10.24 10.24 20.48 15.36 30.72 18.773s18.773 3.413 23.893 5.12c3.413 0 6.827 0 8.533 0s5.12 0 6.827 0c6.827 1.707 8.533 1.707 8.533 1.707v0zM505.173 524.8c0 0-1.707 0-5.12 0-1.707 0-3.413 0-5.12-1.707-1.707 0-5.12-1.707-6.827-3.413-5.12-3.413-11.947-6.827-15.36-13.653-5.12-6.827-8.533-13.653-10.24-22.187-1.707-3.413-1.707-8.533-3.413-11.947s-1.707-8.533-1.707-11.947c0 0 0-3.413 0-3.413v-3.413c0-1.707 0 1.707 0 1.707v0 0 0c0-1.707 0-5.12 0-6.827 0-5.12 1.707-8.533 3.413-13.653s3.413-8.533 6.827-13.653c3.413-3.413 6.827-8.533 10.24-11.947s8.533-6.827 13.653-10.24c1.707-1.707 5.12-3.413 6.827-3.413 1.707-1.707 6.827-1.707 10.24-3.413-1.707 0 0 0 0 0v0 0 0h3.413c1.707 0 3.413 0 5.12 0 3.413 0 6.827 0 10.24 0 6.827 1.707 11.947 3.413 17.067 6.827s10.24 8.533 13.653 13.653c3.413 5.12 5.12 10.24 6.827 17.067 0 3.413 0 5.12 0 8.533s0 5.12 0 6.827 0 5.12-1.707 8.533v0 0 0c0 0 0-1.707 0 0v3.413c0 1.707 0 1.707 0 3.413-1.707 8.533-5.12 17.067-6.827 23.893-3.413 8.533-6.827 15.36-11.947 22.187s-10.24 10.24-15.36 13.653c-3.413 1.707-5.12 1.707-6.827 3.413-1.707 0-3.413 1.707-5.12 1.707-10.24 0-11.947 0-11.947 0v0zM704.853 635.733c1.707-5.12 3.413-11.947 3.413-17.067s1.707-11.947 1.707-17.067c0-3.413-1.707-6.827-5.12-6.827v0h-3.413c0 0-1.707 0 0 0 0 0 0 0 0 0s0 0-1.707 0c0 0-1.707-1.707-1.707-3.413 0 0 0-1.707 1.707-1.707 0 0 1.707-1.707 3.413-1.707 3.413 0 6.827-1.707 10.24-1.707 1.707 0 5.12 1.707 5.12 5.12 0 1.707 0 3.413 0 5.12v5.12c-1.707 6.827-1.707 13.653-3.413 22.187 0 6.827-1.707 13.653-1.707 22.187 0 3.413 0 6.827 0 10.24v6.827c0 0 0 1.707 0 0 0 0 0 0 0 0s0 0 0 1.707c0 0 0 0 0 0s0 0-1.707 0c-3.413 0-6.827 0-10.24 1.707-6.827 1.707-13.653 1.707-22.187 5.12 0 0 0 0 0 1.707 0 0 0 0 0 0 6.827 1.707 13.653 3.413 22.187 5.12 3.413 0 6.827 1.707 10.24 1.707 0 0 3.413 0 3.413 0 1.707 0 3.413 0 5.12-1.707 3.413-1.707 5.12-3.413 6.827-6.827 0-1.707 1.707-3.413 1.707-5.12s0 0 0-1.707v-6.827c0-3.413 0-6.827 0-10.24 0-6.827 0-13.653-1.707-22.187 0-6.827-1.707-13.653-3.413-22.187v-5.12c0-1.707 0-3.413 0-5.12-1.707-5.12-5.12-8.533-10.24-8.533-3.413 0-6.827 0-10.24-1.707-1.707 0-5.12 0-6.827 0-3.413 0-5.12 1.707-6.827 5.12-3.413 5.12-3.413 11.947 0 17.067 1.707 1.707 5.12 5.12 6.827 5.12 0 0 1.707 0 1.707 0 1.707 0 0 0 1.707 0h3.413l-5.12-8.533c0 5.12 0 11.947 1.707 17.067 1.707 6.827 1.707 11.947 5.12 17.067 0 1.707 0 1.707 0 0 0 1.707 0 1.707 0 0zM680.96 669.867c-10.24-1.707-18.773-3.413-29.013-3.413l-15.36-1.707c-1.707 0-5.12 0-5.12 0s-1.707-1.707-1.707-1.707c0 0 0 0 0-1.707v-10.24c0-5.12 0-10.24 0-13.653 0-10.24-1.707-18.773-1.707-29.013 0-5.12-1.707-10.24-1.707-13.653s3.413-6.827 6.827-6.827c10.24 0 18.773 0 29.013 1.707 1.707 0 5.12 0 6.827 0s1.707 1.707 1.707 3.413c0 1.707-1.707 5.12-3.413 5.12h-27.307c-3.413 0-6.827 3.413-6.827 6.827v0 0c0 8.533 0 17.067 0 25.6s0 17.067 0 25.6v0c0 3.413 3.413 6.827 6.827 6.827 10.24 0 20.48 0 32.427-1.707 10.24 0 20.48-1.707 32.427-3.413v0c1.707 0 1.707-1.707 1.707-3.413v0c0-5.12-1.707-11.947-1.707-17.067 0 0 0 0 0 0s0 0 0 0c-1.707 5.12-1.707 11.947-1.707 17.067l3.413-3.413c-10.24-1.707-20.48-1.707-32.427-3.413-10.24 0-20.48-1.707-32.427-1.707l6.827 6.827c0-8.533 0-17.067 0-25.6s0-17.067 0-25.6l-6.827 6.827h25.6c1.707 0 3.413 0 5.12-1.707 8.533-3.413 10.24-13.653 6.827-18.773-1.707-3.413-5.12-5.12-8.533-6.827-3.413 0-5.12 0-8.533 0-10.24 0-18.773 1.707-29.013 1.707-3.413 0-6.827 0-8.533 3.413-1.707 1.707-3.413 5.12-3.413 8.533 0 5.12 0 10.24-1.707 13.653 0 10.24-1.707 18.773-1.707 29.013 0 5.12 0 10.24 0 13.653v10.24c0 1.707 0 3.413 1.707 5.12 1.707 3.413 5.12 6.827 8.533 8.533 1.707 0 1.707 0 3.413 0h1.707c1.707 0 0 0 1.707 0h3.413l15.36-1.707c6.827 1.707 17.067 0 27.307-3.413 0 1.707 0 1.707 0 0 0 0 0 0 0 0zM372.053 697.173c-3.413-1.707-8.533-3.413-11.947-3.413-5.12-1.707-10.24-3.413-15.36-3.413-10.24-1.707-20.48-3.413-30.72-5.12s-20.48-1.707-30.72-3.413c-5.12 0-10.24 0-15.36 0s-10.24 0-15.36 0l18.773 18.773c0-11.947-3.413-23.893-5.12-35.84s-5.12-23.893-6.827-35.84c-1.707-11.947-1.707-23.893 0-35.84 0-11.947 3.413-23.893 5.12-35.84l-10.24 10.24c10.24 1.707 18.773 3.413 29.013 5.12s18.773 1.707 29.013 3.413 39.253 3.413 58.027 3.413l-22.187-22.187c0 11.947 1.707 23.893 1.707 35.84s3.413 23.893 5.12 35.84c1.707 11.947 5.12 23.893 6.827 35.84 1.707 5.12 3.413 11.947 5.12 17.067s3.413 10.24 5.12 15.36zM377.173 698.88c1.707-6.827 3.413-11.947 5.12-18.773s3.413-11.947 3.413-18.773 3.413-23.893 5.12-35.84c1.707-11.947 1.707-23.893 3.413-35.84 0-11.947 0-23.893 0-35.84v0c0-11.947-10.24-22.187-22.187-22.187-18.773 0-39.253 1.707-58.027 3.413-10.24 0-18.773 1.707-29.013 3.413s-18.773 3.413-29.013 5.12h-3.413c-5.12 1.707-8.533 6.827-8.533 11.947 1.707 11.947 3.413 23.893 5.12 35.84s1.707 23.893 0 35.84c-1.707 11.947-3.413 23.893-6.827 35.84s-5.12 23.893-5.12 35.84c0 10.24 6.827 18.773 17.067 18.773v0h1.707c5.12 0 10.24 0 15.36 0s10.24 0 15.36 0 20.48-1.707 30.72-3.413c10.24-1.707 20.48-3.413 30.72-5.12 5.12-1.707 10.24-1.707 15.36-3.413s10.24-3.413 15.36-5.12v0c-3.413 0-1.707 0-1.707-1.707z" />
<glyph unicode="&#xe603;" glyph-name="pinterest" d="M329.387 823.467c0 0-10.24-5.12-27.307-13.653-18.773-8.533-44.373-23.893-75.093-44.373-15.36-10.24-32.427-22.187-47.787-37.547-17.067-15.36-32.427-32.427-47.787-52.907-30.72-39.253-56.32-92.16-66.56-153.6-5.12-30.72-8.533-63.147-6.827-95.573 0-3.413 0-8.533 0-11.947v-3.413c0 0 0 0 0 0v-8.533c0-8.533 1.707-18.773 1.707-25.6 1.707-17.067 5.12-34.133 8.533-51.2 1.707-8.533 3.413-17.067 6.827-25.6 1.707-5.12 1.707-8.533 3.413-13.653 1.707-3.413 3.413-8.533 5.12-13.653 5.12-17.067 13.653-34.133 20.48-51.2 17.067-34.133 39.253-64.853 64.853-93.867 54.613-58.027 129.707-100.693 209.92-119.467 20.48-5.12 40.96-8.533 61.44-11.947s42.667-3.413 63.147-3.413c10.24 0 20.48 0 32.427 1.707 1.707 0 5.12 0 8.533 0h8.533c5.12 0 10.24 1.707 15.36 1.707 20.48 3.413 40.96 8.533 61.44 13.653 39.253 11.947 76.8 32.427 109.227 56.32 32.427 25.6 59.733 54.613 83.627 88.747 46.080 66.56 68.267 146.773 76.8 223.573 5.12 18.773 5.12 37.547 5.12 58.027 0 10.24 0 18.773 0 29.013 0 5.12 0 10.24 0 15.36s0 10.24 0 13.653-1.707 18.773-1.707 27.307c0 5.12-1.707 8.533-1.707 13.653s-1.707 8.533-1.707 13.653c-3.413 17.067-6.827 35.84-11.947 51.2-20.48 66.56-58.027 122.88-105.813 160.427-47.787 39.253-102.4 59.733-151.893 69.973-25.6 5.12-47.787 6.827-71.68 8.533-22.187 1.707-44.373 1.707-63.147 1.707-37.547 0-66.56 0-87.040-1.707-10.24 0-17.067-1.707-22.187-3.413s-6.827-1.707-6.827-1.707l-3.413 3.413c0 1.707 10.24 6.827 30.72 10.24 20.48 5.12 51.2 8.533 88.747 11.947 18.773 1.707 40.96 3.413 63.147 3.413 23.893 1.707 49.493 1.707 76.8-1.707 54.613-6.827 116.053-25.6 172.373-66.56 13.653-10.24 27.307-22.187 40.96-34.133 6.827-6.827 11.947-13.653 18.773-20.48 5.12-6.827 11.947-13.653 17.067-22.187 22.187-30.72 39.253-66.56 51.2-104.107 5.12-18.773 10.24-37.547 13.653-58.027 0-5.12 1.707-10.24 1.707-15.36s1.707-10.24 1.707-15.36 1.707-20.48 3.413-30.72c0-10.24 0-20.48 1.707-29.013v-15.36c0-5.12 0-10.24 0-15.36 0-20.48-1.707-40.96-5.12-63.147-1.707-20.48-6.827-42.667-11.947-63.147s-10.24-42.667-18.773-63.147c-6.827-20.48-17.067-40.96-27.307-61.44s-22.187-39.253-35.84-56.32c-13.653-18.773-27.307-35.84-44.373-51.2s-34.133-30.72-52.907-42.667c-37.547-25.6-80.213-42.667-124.587-52.907-22.187-5.12-44.373-8.533-66.56-10.24s-44.373-1.707-66.56 0c-22.187 1.707-44.373 3.413-64.853 6.827-22.187 3.413-42.667 6.827-63.147 13.653-83.627 22.187-162.133 59.733-225.28 116.053-30.72 27.307-58.027 59.733-80.213 95.573-10.24 17.067-20.48 35.84-27.307 54.613-1.707 5.12-3.413 8.533-5.12 13.653s-3.413 10.24-5.12 13.653-5.12 18.773-8.533 29.013c-5.12 18.773-8.533 37.547-10.24 56.32 0 10.24 0 18.773 0 27.307v15.36c0 5.12 0 8.533 0 13.653 0 35.84 3.413 71.68 10.24 105.813s18.773 64.853 32.427 92.16c11.947 27.307 29.013 51.2 47.787 71.68s37.547 37.547 56.32 52.907c18.773 13.653 37.547 25.6 54.613 34.133 34.133 18.773 63.147 29.013 81.92 35.84s29.013 10.24 29.013 10.24l3.413-5.12zM63.147 434.347c0 0 0-3.413 0-8.533s0-13.653 1.707-23.893c1.707-22.187 5.12-52.907 18.773-90.453 3.413-10.24 6.827-18.773 10.24-29.013 1.707-5.12 5.12-10.24 6.827-15.36s5.12-10.24 8.533-15.36c11.947-20.48 25.6-42.667 42.667-63.147 35.84-40.96 85.333-76.8 146.773-100.693s131.413-35.84 208.213-39.253c10.24 0 18.773 0 29.013 0s18.773 0 29.013 0c10.24 0 20.48 0 29.013 0 10.24 0 20.48 1.707 30.72 1.707 5.12 0 10.24 0 15.36 1.707 5.12 0 10.24 1.707 15.36 1.707s10.24 1.707 15.36 1.707c5.12 1.707 10.24 1.707 15.36 1.707 20.48 3.413 39.253 10.24 59.733 17.067 18.773 6.827 37.547 17.067 56.32 27.307s34.133 23.893 51.2 39.253c30.72 29.013 56.32 66.56 75.093 105.813 37.547 80.213 47.787 174.080 34.133 261.12-6.827 44.373-18.773 87.040-35.84 128-8.533 20.48-17.067 39.253-29.013 58.027-10.24 18.773-22.187 37.547-35.84 54.613-25.6 34.133-56.32 63.147-90.453 87.040-17.067 11.947-35.84 22.187-52.907 30.72-18.773 8.533-37.547 15.36-56.32 20.48s-39.253 8.533-58.027 11.947c-20.48 1.707-39.253 3.413-58.027 3.413-40.96 0-80.213-1.707-117.76-6.827s-73.387-11.947-105.813-22.187c-32.427-10.24-63.147-25.6-90.453-42.667-52.907-35.84-90.453-85.333-114.347-134.827-11.947-23.893-20.48-49.493-27.307-71.68s-11.947-44.373-13.653-64.853c-1.707-10.24-3.413-18.773-3.413-27.307-1.707-8.533-1.707-17.067-3.413-25.6-1.707-15.36-1.707-29.013-1.707-39.253-5.12-22.187-5.12-32.427-5.12-32.427v0zM58.027 434.347c0 0 0 11.947 0 32.427 0 10.24 1.707 23.893 1.707 39.253 0 8.533 1.707 15.36 1.707 25.6 0 8.533 1.707 18.773 1.707 29.013 3.413 39.253 11.947 88.747 29.013 143.36 8.533 27.307 22.187 54.613 39.253 81.92s40.96 54.613 69.973 76.8c29.013 22.187 61.44 40.96 98.987 56.32 35.84 13.653 75.093 22.187 116.053 29.013 40.96 5.12 81.92 8.533 122.88 8.533 22.187 0 44.373-1.707 66.56-3.413 22.187-3.413 44.373-8.533 66.56-13.653 22.187-6.827 42.667-15.36 64.853-25.6 20.48-10.24 40.96-22.187 59.733-35.84 37.547-27.307 71.68-61.44 98.987-100.693s49.493-81.92 63.147-126.293c15.36-44.373 23.893-90.453 27.307-138.24 3.413-46.080 1.707-93.867-6.827-139.947-3.413-22.187-8.533-46.080-15.36-66.56-6.827-22.187-15.36-44.373-25.6-64.853-18.773-40.96-46.080-78.507-76.8-112.64-30.72-32.427-68.267-59.733-109.227-78.507-20.48-10.24-40.96-17.067-61.44-23.893-5.12-1.707-10.24-3.413-15.36-3.413-5.12-1.707-10.24-3.413-15.36-3.413-5.12-1.707-10.24-1.707-15.36-3.413h-8.533l-8.533-1.707c-40.96-6.827-81.92-8.533-122.88-10.24-80.213 0-158.72 15.36-223.573 46.080-32.427 15.36-61.44 34.133-85.333 56.32s-44.373 44.373-61.44 68.267c-32.427 47.787-49.493 95.573-59.733 133.12-10.24 39.253-13.653 69.973-15.36 92.16 0 10.24-1.707 18.773-1.707 23.893 0 6.827 0 10.24 0 10.24v0zM349.867 395.093c0 0 1.707 0 1.707 0 1.707 0 3.413 0 5.12 1.707 0 0 1.707 1.707 1.707 3.413 0 0 0 1.707 0 1.707s0 0 0 1.707c0 0 0 1.707 0 1.707 0 5.12 0 10.24 1.707 17.067 0 3.413 0 6.827 1.707 10.24 0 1.707 0 1.707 0 3.413 0 0 0 0 0 0s-3.413 3.413-6.827 5.12c-3.413 3.413-6.827 8.533-10.24 11.947-6.827 8.533-11.947 18.773-13.653 30.72-3.413 11.947-5.12 23.893-5.12 35.84 0 5.12 0 10.24 0 18.773 0 3.413 0 6.827 1.707 10.24 0 3.413 1.707 6.827 1.707 10.24s1.707 6.827 1.707 10.24c1.707 3.413 1.707 6.827 3.413 10.24 1.707 6.827 5.12 13.653 8.533 18.773 13.653 25.6 35.84 47.787 63.147 61.44s56.32 22.187 87.040 25.6c6.827 0 15.36 1.707 22.187 1.707h10.24c3.413 0 8.533 0 11.947 0 15.36-1.707 30.72-3.413 47.787-8.533 15.36-5.12 30.72-13.653 44.373-23.893 3.413-3.413 6.827-5.12 8.533-8.533l8.533-10.24c1.707-3.413 5.12-6.827 6.827-10.24s3.413-6.827 6.827-11.947c6.827-15.36 11.947-32.427 13.653-47.787 0-3.413 0-8.533 1.707-11.947v-1.707c0 0 0 0 0-1.707v-8.533c0-3.413 0-6.827 0-10.24s0-8.533 0-11.947c-1.707-30.72-8.533-59.733-18.773-85.333-1.707-3.413-3.413-6.827-5.12-10.24s-3.413-6.827-5.12-8.533c-3.413-6.827-8.533-11.947-11.947-17.067-8.533-10.24-18.773-20.48-30.72-29.013-3.413-1.707-5.12-3.413-8.533-5.12s-5.12-3.413-8.533-5.12c-6.827-1.707-11.947-5.12-18.773-5.12-3.413 0-6.827-1.707-10.24-1.707s-6.827 0-8.533 0h-13.653c-1.707 0-3.413 0-5.12 1.707-23.893 6.827-37.547 22.187-44.373 35.84-3.413 6.827-3.413 13.653-3.413 20.48 0 3.413 0 5.12 0 8.533 0 1.707 0 5.12 1.707 6.827 0 3.413 1.707 6.827 3.413 8.533 0 1.707 1.707 3.413 1.707 3.413 0 1.707 1.707 1.707 3.413 1.707s1.707-1.707 1.707-1.707v0c0 0 0-1.707 0-3.413s0-5.12 0-6.827c1.707-6.827 3.413-15.36 10.24-23.893 3.413-3.413 8.533-6.827 13.653-10.24 5.12-1.707 11.947-3.413 17.067-3.413h8.533c-1.707 0 0 0 0 0h3.413c1.707 0 3.413 0 5.12 1.707 1.707 0 3.413 1.707 5.12 1.707 3.413 1.707 6.827 3.413 10.24 5.12 1.707 1.707 3.413 1.707 5.12 3.413l3.413 3.413c1.707 1.707 3.413 3.413 5.12 5.12s3.413 3.413 3.413 5.12c1.707 1.707 3.413 3.413 3.413 5.12 1.707 1.707 3.413 3.413 3.413 6.827 5.12 8.533 10.24 18.773 13.653 29.013s6.827 22.187 10.24 34.133c1.707 11.947 5.12 23.893 6.827 35.84 0 3.413 0 6.827 1.707 8.533 0 3.413 0 6.827 0 10.24v8.533c0-1.707 0 0 0 0v0 0 10.24c0 11.947-1.707 23.893-6.827 35.84-6.827 22.187-22.187 42.667-44.373 58.027-11.947 6.827-23.893 11.947-37.547 15.36-3.413 0-6.827 1.707-10.24 1.707l-11.947-5.12c-1.707 0-3.413 0-5.12 0h-15.36c-27.307-1.707-54.613-13.653-73.387-32.427l-13.653-13.653c-1.707-1.707-3.413-5.12-5.12-6.827s-3.413-5.12-5.12-6.827-5.12-10.24-8.533-15.36c-1.707-1.707-1.707-5.12-3.413-8.533s-3.413-5.12-3.413-6.827c-1.707-5.12-5.12-10.24-5.12-15.36-1.707-1.707-1.707-5.12-1.707-6.827s-1.707-5.12-1.707-6.827c0-1.707-1.707-5.12-1.707-6.827s0-5.12-1.707-6.827c-1.707-3.413-1.707-10.24-1.707-15.36-1.707-8.533 0-18.773 0-27.307 1.707-8.533 3.413-15.36 5.12-22.187 1.707-3.413 3.413-6.827 5.12-10.24s5.12-6.827 8.533-13.653c1.707-3.413 1.707-8.533 1.707-11.947s-1.707-5.12-1.707-8.533c-1.707-3.413-3.413-6.827-3.413-10.24-3.413-6.827-5.12-11.947-6.827-15.36v-1.707c0 0 0-1.707-1.707-1.707 0-1.707-1.707-3.413-3.413-3.413-1.707-1.707-5.12-3.413-6.827-5.12-5.12-1.707-8.533 0-10.24 0-1.707 1.707-1.707 1.707-3.413 1.707s-1.707 1.707-1.707 3.413c-1.707 0 0 0 1.707 0zM488.107 430.933c1.707 15.36 5.12 32.427 8.533 47.787s6.827 30.72 8.533 46.080c1.707 6.827 1.707 15.36 1.707 22.187v10.24c0 3.413-1.707 5.12-1.707 8.533-1.707 5.12-5.12 10.24-8.533 13.653s-8.533 5.12-11.947 6.827c-1.707 0-5.12 0-8.533 0v0 0c-1.707 0 1.707 0 1.707 0v0 0h-6.827c0 0 0 0 0 0s-1.707 0-1.707 0c-3.413-1.707-10.24-3.413-13.653-6.827-8.533-6.827-15.36-18.773-18.773-30.72-1.707-6.827-3.413-11.947-3.413-18.773 0-3.413 0-6.827 0-10.24v-1.707c0 0 0 0 0 0v-1.707c0-1.707 0-3.413 0-5.12 0-6.827 1.707-13.653 3.413-20.48 0-3.413 1.707-6.827 3.413-10.24 0-1.707 1.707-3.413 1.707-5.12s1.707-3.413 1.707-3.413c1.707-5.12 3.413-10.24 1.707-13.653v0c-5.12-22.187-10.24-44.373-15.36-64.853-5.12-22.187-10.24-42.667-15.36-64.853l-8.533-32.427-6.827-18.773-1.707-8.533-1.707-6.827c-5.12-20.48-6.827-40.96-6.827-63.147v1.707c0-1.707 0-3.413 0-5.12s0-3.413 1.707-3.413c0-1.707 1.707-1.707 1.707-3.413 0 0 0 0 1.707-1.707 0 0 0 0 1.707 0 0 0 0 0 0 0s0 0 0 0 1.707 0 1.707 0c0 0 1.707 0 1.707 0s1.707 0 1.707 1.707c1.707 0 1.707 1.707 3.413 3.413v-1.707c8.533 11.947 15.36 23.893 22.187 35.84 3.413 6.827 6.827 11.947 8.533 18.773 1.707 3.413 1.707 6.827 3.413 10.24s1.707 6.827 3.413 10.24c6.827 29.013 15.36 56.32 22.187 85.333 1.707 3.413 5.12 6.827 8.533 5.12 1.707 0 3.413-1.707 5.12-3.413v0c5.12-10.24 15.36-18.773 25.6-23.893s22.187-10.24 34.133-11.947c5.12-1.707 11.947-1.707 17.067 0l10.24 1.707h5.12l5.12 1.707 8.533 1.707c3.413 0 5.12 1.707 8.533 1.707 3.413 1.707 5.12 1.707 8.533 3.413l8.533 3.413c22.187 10.24 40.96 25.6 54.613 44.373 15.36 18.773 25.6 40.96 32.427 64.853 1.707 5.12 3.413 11.947 5.12 17.067 1.707 6.827 3.413 11.947 3.413 17.067 1.707 6.827 1.707 11.947 3.413 18.773 0 5.12 1.707 11.947 1.707 18.773s0 11.947 0 18.773v10.24c0 0 0-1.707 0-1.707v0 17.067c0 1.707 0 3.413 0 5.12v3.413l-1.707 8.533c0 3.413-1.707 5.12-1.707 8.533-6.827 22.187-17.067 42.667-30.72 59.733s-32.427 32.427-52.907 44.373c-20.48 10.24-42.667 18.773-64.853 22.187l-8.533 1.707h-10.24l-17.067 1.707h-20.48c-3.413 0-6.827 0-10.24 0l-8.533-1.707c-5.12-1.707-11.947-1.707-17.067-1.707l-17.067-3.413c-11.947-3.413-22.187-6.827-34.133-11.947-22.187-10.24-40.96-22.187-58.027-39.253s-30.72-35.84-42.667-58.027c-10.24-22.187-17.067-46.080-18.773-69.973-1.707-11.947 0-23.893 0-37.547 1.707-11.947 3.413-23.893 8.533-35.84 8.533-22.187 23.893-44.373 46.080-56.32 1.707 0 1.707-1.707 1.707-3.413s-1.707-1.707-3.413-1.707c-25.6 8.533-47.787 29.013-61.44 52.907s-18.773 52.907-20.48 80.213c-1.707 29.013 3.413 56.32 13.653 83.627s25.6 51.2 44.373 73.387c18.773 22.187 42.667 39.253 68.267 52.907 6.827 3.413 13.653 6.827 20.48 8.533s13.653 5.12 20.48 6.827l20.48 5.12c6.827 1.707 15.36 3.413 22.187 3.413l10.24 1.707c3.413 0 6.827 0 10.24 0l20.48 1.707h22.187c6.827 0 13.653-1.707 22.187-1.707 29.013-5.12 58.027-13.653 83.627-29.013s47.787-34.133 66.56-58.027c18.773-23.893 30.72-51.2 37.547-80.213 0-3.413 1.707-6.827 1.707-10.24l1.707-11.947v-5.12c0-1.707 0-3.413 0-5.12v-32.427c0-6.827-1.707-13.653-1.707-20.48s-1.707-13.653-3.413-20.48c-1.707-6.827-3.413-13.653-5.12-20.48s-3.413-13.653-5.12-20.48c-1.707-6.827-5.12-13.653-6.827-20.48-10.24-25.6-25.6-51.2-46.080-71.68-18.773-20.48-44.373-37.547-69.973-46.080l-10.24-3.413c-3.413-1.707-6.827-1.707-10.24-1.707s-6.827-1.707-10.24-1.707l-10.24-1.707h-20.48c-8.533 0-15.36 0-22.187 1.707-13.653 3.413-27.307 8.533-39.253 15.36s-23.893 17.067-30.72 30.72l13.653 1.707c-6.827-29.013-13.653-56.32-20.48-85.333 0-3.413-1.707-6.827-1.707-10.24-1.707-3.413-1.707-6.827-3.413-10.24-1.707-6.827-5.12-13.653-8.533-22.187-5.12-13.653-11.947-27.307-18.773-40.96 0 0 0 0 0-1.707v0c-1.707-1.707-3.413-5.12-6.827-6.827-1.707-1.707-1.707-1.707-3.413-3.413s-3.413-1.707-5.12-3.413-8.533-3.413-11.947-3.413c-1.707 0-5.12 0-6.827 0s-3.413 1.707-6.827 1.707c-1.707 1.707-3.413 1.707-5.12 3.413s-3.413 1.707-5.12 3.413c-3.413 3.413-5.12 5.12-6.827 8.533s-3.413 6.827-5.12 8.533c-1.707 3.413-1.707 6.827-3.413 10.24v1.707c-1.707 23.893-3.413 46.080 0 69.973l3.413 10.24 5.12 25.6 6.827 32.427c5.12 22.187 8.533 44.373 13.653 64.853 5.12 22.187 10.24 42.667 15.36 64.853l1.707-15.36c-1.707 3.413-1.707 5.12-3.413 6.827 0 1.707-1.707 5.12-1.707 6.827-1.707 5.12-1.707 8.533-3.413 13.653-1.707 8.533-3.413 17.067-3.413 27.307 0 3.413 0 5.12 0 6.827v8.533c0 5.12 0 8.533 1.707 13.653 1.707 8.533 3.413 18.773 6.827 27.307s6.827 17.067 13.653 25.6c5.12 8.533 11.947 15.36 20.48 22.187 8.533 5.12 17.067 10.24 29.013 11.947h17.067c5.12 0 10.24-1.707 15.36-3.413 10.24-3.413 20.48-8.533 27.307-17.067s10.24-18.773 11.947-27.307c1.707-5.12 1.707-10.24 1.707-15.36v-6.827c0-1.707 0-5.12 0-6.827-1.707-8.533-3.413-17.067-5.12-25.6-5.12-15.36-10.24-30.72-17.067-46.080-5.12-15.36-11.947-29.013-17.067-44.373 0-1.707-1.707-1.707-3.413-1.707-3.413 3.413-3.413 5.12-3.413 5.12v0z" />
<glyph unicode="&#xe604;" glyph-name="seta" d="M168.96 321.707c5.12 8.533 10.24 15.36 15.36 23.893 5.12 6.827 11.947 15.36 17.067 22.187 11.947 13.653 23.893 27.307 37.547 39.253 6.827 6.827 13.653 11.947 18.773 18.773 6.827 6.827 13.653 11.947 20.48 17.067 13.653 11.947 27.307 22.187 42.667 32.427s30.72 18.773 47.787 27.307c15.36 8.533 32.427 17.067 46.080 27.307 15.36 10.24 29.013 22.187 40.96 34.133 13.653 11.947 25.6 25.6 37.547 39.253l6.827 8.533 15.36-8.533c15.36-8.533 32.427-17.067 47.787-27.307 6.827-5.12 15.36-10.24 22.187-15.36l22.187-15.36c15.36-10.24 29.013-20.48 44.373-30.72s29.013-22.187 42.667-34.133c6.827-5.12 13.653-11.947 20.48-17.067 6.827-6.827 13.653-11.947 20.48-18.773 13.653-11.947 25.6-25.6 37.547-37.547 11.947-13.653 23.893-27.307 35.84-40.96 5.12-6.827 11.947-13.653 17.067-22.187 5.12-6.827 11.947-15.36 17.067-22.187l-3.413-5.12c-8.533 3.413-17.067 6.827-25.6 11.947-8.533 3.413-17.067 8.533-23.893 11.947-15.36 8.533-32.427 17.067-47.787 27.307s-30.72 18.773-46.080 29.013c-6.827 5.12-15.36 10.24-22.187 15.36s-13.653 10.24-22.187 15.36c-13.653 10.24-27.307 22.187-40.96 34.133s-27.307 23.893-39.253 35.84l-20.48 18.773c-6.827 6.827-13.653 11.947-18.773 18.773-11.947 13.653-23.893 27.307-37.547 40.96h22.187c-15.36-8.533-30.72-18.773-46.080-29.013s-29.013-22.187-42.667-34.133c-13.653-11.947-25.6-25.6-37.547-39.253s-23.893-27.307-35.84-40.96c-11.947-13.653-25.6-23.893-40.96-35.84-6.827-5.12-13.653-10.24-22.187-15.36-6.827-5.12-15.36-10.24-22.187-15.36-15.36-10.24-30.72-18.773-46.080-27.307-8.533-3.413-17.067-8.533-23.893-11.947-8.533-3.413-17.067-6.827-25.6-10.24l-5.12 5.12zM329.387 823.467c0 0-10.24-5.12-27.307-13.653-18.773-8.533-44.373-23.893-75.093-44.373-15.36-10.24-32.427-22.187-47.787-37.547-17.067-15.36-32.427-32.427-47.787-52.907-30.72-39.253-56.32-92.16-66.56-153.6-5.12-30.72-8.533-63.147-6.827-95.573 0-3.413 0-8.533 0-11.947v-3.413c0 0 0 0 0 0v-8.533c0-8.533 1.707-18.773 1.707-25.6 1.707-17.067 5.12-34.133 8.533-51.2 1.707-8.533 3.413-17.067 6.827-25.6 1.707-5.12 1.707-8.533 3.413-13.653 1.707-3.413 3.413-8.533 5.12-13.653 5.12-17.067 13.653-34.133 20.48-51.2 17.067-34.133 39.253-64.853 64.853-93.867 54.613-58.027 129.707-100.693 209.92-119.467 20.48-5.12 40.96-8.533 61.44-11.947s42.667-3.413 63.147-3.413c10.24 0 20.48 0 32.427 1.707 1.707 0 5.12 0 8.533 0h8.533c5.12 0 10.24 1.707 15.36 1.707 20.48 3.413 40.96 8.533 61.44 13.653 39.253 11.947 76.8 32.427 109.227 56.32 32.427 25.6 59.733 54.613 83.627 88.747 46.080 66.56 68.267 146.773 76.8 223.573 5.12 18.773 5.12 37.547 5.12 58.027 0 10.24 0 18.773 0 29.013 0 5.12 0 10.24 0 15.36s0 10.24 0 13.653-1.707 18.773-1.707 27.307c0 5.12-1.707 8.533-1.707 13.653s-1.707 8.533-1.707 13.653c-3.413 17.067-6.827 35.84-11.947 51.2-20.48 66.56-58.027 122.88-105.813 160.427-47.787 39.253-102.4 59.733-151.893 69.973-25.6 5.12-47.787 6.827-71.68 8.533-22.187 1.707-44.373 1.707-63.147 1.707-37.547 0-66.56 0-87.040-1.707-10.24 0-17.067-1.707-22.187-3.413s-6.827-1.707-6.827-1.707l-3.413 3.413c0 1.707 10.24 6.827 30.72 10.24 20.48 5.12 51.2 8.533 88.747 11.947 18.773 1.707 40.96 3.413 63.147 3.413 23.893 1.707 49.493 1.707 76.8-1.707 54.613-6.827 116.053-25.6 172.373-66.56 13.653-10.24 27.307-22.187 40.96-34.133 6.827-6.827 11.947-13.653 18.773-20.48 5.12-6.827 11.947-13.653 17.067-22.187 22.187-30.72 39.253-66.56 51.2-104.107 5.12-18.773 10.24-37.547 13.653-58.027 0-5.12 1.707-10.24 1.707-15.36s1.707-10.24 1.707-15.36 1.707-20.48 3.413-30.72c0-10.24 0-20.48 1.707-29.013v-15.36c0-5.12 0-10.24 0-15.36 0-20.48-1.707-40.96-5.12-63.147-1.707-20.48-6.827-42.667-11.947-63.147s-10.24-42.667-18.773-63.147c-6.827-20.48-17.067-40.96-27.307-61.44s-22.187-39.253-35.84-56.32c-13.653-18.773-27.307-35.84-44.373-51.2s-34.133-30.72-52.907-42.667c-37.547-25.6-80.213-42.667-124.587-52.907-22.187-5.12-44.373-8.533-66.56-10.24s-44.373-1.707-66.56 0c-22.187 1.707-44.373 3.413-64.853 6.827-22.187 3.413-42.667 6.827-63.147 13.653-83.627 22.187-162.133 59.733-225.28 116.053-30.72 27.307-58.027 59.733-80.213 95.573-10.24 17.067-20.48 35.84-27.307 54.613-1.707 5.12-3.413 8.533-5.12 13.653s-3.413 10.24-5.12 13.653-5.12 18.773-8.533 29.013c-5.12 18.773-8.533 37.547-10.24 56.32 0 10.24 0 18.773 0 27.307v15.36c0 5.12 0 8.533 0 13.653 0 35.84 3.413 71.68 10.24 105.813s18.773 64.853 32.427 92.16c11.947 27.307 29.013 51.2 47.787 71.68s37.547 37.547 56.32 52.907c18.773 13.653 37.547 25.6 54.613 34.133 34.133 18.773 63.147 29.013 81.92 35.84s29.013 10.24 29.013 10.24l3.413-5.12zM63.147 434.347c0 0 0-3.413 0-8.533s0-13.653 1.707-23.893c1.707-22.187 5.12-52.907 18.773-90.453 3.413-10.24 6.827-18.773 10.24-29.013 1.707-5.12 5.12-10.24 6.827-15.36s5.12-10.24 8.533-15.36c11.947-20.48 25.6-42.667 42.667-63.147 35.84-40.96 85.333-76.8 146.773-100.693s131.413-35.84 208.213-39.253c10.24 0 18.773 0 29.013 0s18.773 0 29.013 0c10.24 0 20.48 0 29.013 0 10.24 0 20.48 1.707 30.72 1.707 5.12 0 10.24 0 15.36 1.707 5.12 0 10.24 1.707 15.36 1.707s10.24 1.707 15.36 1.707c5.12 1.707 10.24 1.707 15.36 1.707 20.48 3.413 39.253 10.24 59.733 17.067 18.773 6.827 37.547 17.067 56.32 27.307s34.133 23.893 51.2 39.253c30.72 29.013 56.32 66.56 75.093 105.813 37.547 80.213 47.787 174.080 34.133 261.12-6.827 44.373-18.773 87.040-35.84 128-8.533 20.48-17.067 39.253-29.013 58.027-10.24 18.773-22.187 37.547-35.84 54.613-25.6 34.133-56.32 63.147-90.453 87.040-17.067 11.947-35.84 22.187-52.907 30.72-18.773 8.533-37.547 15.36-56.32 20.48s-39.253 8.533-58.027 11.947c-20.48 1.707-39.253 3.413-58.027 3.413-40.96 0-80.213-1.707-117.76-6.827s-73.387-11.947-105.813-22.187c-32.427-10.24-63.147-25.6-90.453-42.667-52.907-35.84-90.453-85.333-114.347-134.827-11.947-23.893-20.48-49.493-27.307-71.68s-11.947-44.373-13.653-64.853c-1.707-10.24-3.413-18.773-3.413-27.307-1.707-8.533-1.707-17.067-3.413-25.6-1.707-15.36-1.707-29.013-1.707-39.253-5.12-22.187-5.12-32.427-5.12-32.427v0zM58.027 434.347c0 0 0 11.947 0 32.427 0 10.24 1.707 23.893 1.707 39.253 0 8.533 1.707 15.36 1.707 25.6 0 8.533 1.707 18.773 1.707 29.013 3.413 39.253 11.947 88.747 29.013 143.36 8.533 27.307 22.187 54.613 39.253 81.92s40.96 54.613 69.973 76.8c29.013 22.187 61.44 40.96 98.987 56.32 35.84 13.653 75.093 22.187 116.053 29.013 40.96 5.12 81.92 8.533 122.88 8.533 22.187 0 44.373-1.707 66.56-3.413 22.187-3.413 44.373-8.533 66.56-13.653 22.187-6.827 42.667-15.36 64.853-25.6 20.48-10.24 40.96-22.187 59.733-35.84 37.547-27.307 71.68-61.44 98.987-100.693s49.493-81.92 63.147-126.293c15.36-44.373 23.893-90.453 27.307-138.24 3.413-46.080 1.707-93.867-6.827-139.947-3.413-22.187-8.533-46.080-15.36-66.56-6.827-22.187-15.36-44.373-25.6-64.853-18.773-40.96-46.080-78.507-76.8-112.64-30.72-32.427-68.267-59.733-109.227-78.507-20.48-10.24-40.96-17.067-61.44-23.893-5.12-1.707-10.24-3.413-15.36-3.413-5.12-1.707-10.24-3.413-15.36-3.413-5.12-1.707-10.24-1.707-15.36-3.413h-8.533l-8.533-1.707c-40.96-6.827-81.92-8.533-122.88-10.24-80.213 0-158.72 15.36-223.573 46.080-32.427 15.36-61.44 34.133-85.333 56.32s-44.373 44.373-61.44 68.267c-32.427 47.787-49.493 95.573-59.733 133.12-10.24 39.253-13.653 69.973-15.36 92.16 0 10.24-1.707 18.773-1.707 23.893 0 6.827 0 10.24 0 10.24v0z" />
<glyph unicode="&#xe605;" glyph-name="twitter" d="M727.040 608.427c1.707 3.413 3.413 6.827 5.12 10.24l5.12 8.533c3.413 5.12 5.12 11.947 8.533 17.067 1.707 5.12 5.12 11.947 6.827 17.067 1.707 3.413 1.707 5.12 1.707 8.533s1.707 5.12 1.707 8.533l32.427-25.6c-6.827-3.413-11.947-8.533-18.773-10.24-3.413-3.413-10.24-6.827-18.773-6.827-13.653-1.707-29.013-1.707-42.667-1.707h-3.413c-1.707 0-5.12 1.707-5.12 3.413-5.12 10.24-15.36 18.773-25.6 23.893-5.12 1.707-11.947 5.12-17.067 5.12s-11.947 1.707-17.067 0c-3.413 0-5.12 0-8.533-1.707-1.707 0-3.413 0-3.413 0h-3.413c0 0-1.707 0 1.707 0v0 0c-3.413 0-6.827-1.707-10.24-1.707s-5.12-1.707-6.827-1.707c-1.707 0-5.12-1.707-6.827-1.707l-5.12-5.12-3.413-1.707c-5.12-1.707-8.533-5.12-11.947-8.533-1.707-1.707-3.413-3.413-5.12-5.12s-3.413-3.413-5.12-5.12-6.827-6.827-10.24-10.24l-3.413-3.413c0-1.707-1.707-1.707-1.707-3.413-1.707-1.707-3.413-3.413-5.12-5.12s-3.413-3.413-5.12-6.827c-1.707-1.707-3.413-5.12-5.12-6.827-3.413-5.12-5.12-8.533-8.533-13.653s-5.12-10.24-6.827-15.36l-6.827-17.067c-1.707-6.827-3.413-11.947-5.12-18.773v0c0-1.707-1.707-1.707-3.413-1.707 0 0-1.707 0-1.707 1.707-5.12 5.12-6.827 11.947-10.24 18.773s-3.413 13.653-5.12 20.48c0 3.413 0 6.827-1.707 10.24 0 3.413 0 6.827 0 11.947 0 6.827 1.707 15.36 3.413 22.187 1.707 3.413 1.707 6.827 3.413 10.24s3.413 6.827 5.12 10.24c1.707 3.413 3.413 6.827 5.12 10.24s5.12 6.827 6.827 10.24c1.707 3.413 5.12 6.827 8.533 8.533 3.413 3.413 5.12 5.12 8.533 8.533 3.413 1.707 6.827 5.12 10.24 6.827s6.827 3.413 10.24 5.12 13.653 6.827 22.187 8.533l10.24 3.413c3.413 0 6.827 1.707 11.947 1.707 3.413 0 8.533 0 11.947 0s6.827 0 10.24-1.707v0 0c1.707 0 0 0 1.707 0v0 0h5.12c1.707 0 3.413-1.707 5.12-1.707 3.413-1.707 6.827-1.707 10.24-3.413 13.653-5.12 25.6-13.653 37.547-20.48s22.187-15.36 32.427-23.893l-6.827 3.413c5.12 1.707 11.947 5.12 17.067 8.533s10.24 6.827 15.36 10.24c1.707 1.707 5.12 3.413 6.827 5.12s5.12 3.413 6.827 5.12 10.24 5.12 15.36 8.533l1.707 1.707c10.24 5.12 23.893 1.707 29.013-8.533 3.413-5.12 3.413-11.947 1.707-18.773-3.413-8.533-6.827-15.36-11.947-22.187s-10.24-13.653-15.36-18.773c-3.413-3.413-6.827-5.12-10.24-6.827s-6.827-5.12-10.24-6.827c-3.413-1.707-6.827-3.413-11.947-5.12-1.707 0-3.413-1.707-5.12-1.707s-3.413 0-5.12 0v0c0 0-1.707 1.707-1.707 5.12 0-1.707 0-1.707 0 0zM238.933 261.973l22.187-6.827c6.827-1.707 13.653-5.12 22.187-6.827 13.653-3.413 29.013-8.533 42.667-10.24 27.307-5.12 56.32-8.533 83.627-8.533h5.12c1.707 0 3.413 0 5.12 0 3.413 0 6.827 0 11.947 0 6.827 0 13.653 0 20.48 0 13.653 0 29.013 0 42.667 1.707s29.013 5.12 42.667 8.533c13.653 5.12 27.307 11.947 39.253 18.773 11.947 8.533 23.893 17.067 34.133 29.013 10.24 10.24 18.773 22.187 27.307 34.133 5.12 6.827 8.533 11.947 11.947 18.773s6.827 11.947 10.24 18.773 13.653 25.6 18.773 37.547c5.12 13.653 10.24 25.6 13.653 39.253s6.827 27.307 10.24 40.96l1.707 10.24c0 3.413 1.707 6.827 1.707 10.24 1.707 6.827 1.707 13.653 3.413 20.48s1.707 13.653 1.707 20.48v5.12c0 0 0 0 0 0v20.48c0 6.827 3.413 13.653 10.24 17.067 22.187 13.653 40.96 30.72 58.027 49.493l18.773-22.187c-11.947-3.413-23.893-6.827-35.84-6.827-11.947-1.707-23.893-1.707-35.84 0-1.707 0-1.707 1.707-1.707 3.413s0 1.707 1.707 1.707c5.12 1.707 10.24 3.413 15.36 6.827 5.12 1.707 10.24 5.12 15.36 6.827 10.24 5.12 18.773 10.24 29.013 15.36 6.827 5.12 15.36 3.413 20.48-3.413 3.413-5.12 3.413-10.24 1.707-13.653l-1.707-3.413c-13.653-27.307-32.427-52.907-56.32-71.68l10.24 20.48 1.707-11.947v-13.653c0-8.533 0-17.067 0-23.893-1.707-17.067-3.413-32.427-6.827-47.787-1.707-8.533-3.413-15.36-6.827-23.893-3.413-6.827-5.12-15.36-8.533-22.187-5.12-15.36-13.653-29.013-20.48-44.373-8.533-13.653-17.067-27.307-27.307-40.96-5.12-6.827-10.24-11.947-15.36-18.773-5.12-5.12-11.947-11.947-17.067-17.067l-5.12-3.413v-1.707l-1.707-1.707-8.533-6.827c-6.827-5.12-11.947-10.24-18.773-13.653-11.947-8.533-25.6-17.067-39.253-25.6s-27.307-15.36-40.96-22.187c-13.653-6.827-27.307-13.653-42.667-20.48s-30.72-11.947-46.080-15.36c-8.533-1.707-17.067-3.413-23.893-3.413-3.413 0-6.827 0-11.947 0-1.707 0-3.413 0-5.12 0h-6.827c-32.427 0-64.853 6.827-93.867 20.48-15.36 6.827-29.013 13.653-42.667 23.893l-10.24 6.827c-3.413 3.413-6.827 5.12-8.533 8.533l-8.533 8.533c-3.413 3.413-5.12 5.12-8.533 8.533v0c-1.707 1.707 0 3.413 0 3.413 0-3.413 0-3.413 1.707-3.413zM512 533.333c-5.12 0-11.947-1.707-17.067-1.707s-11.947 0-18.773 0c-6.827 0-11.947 0-18.773 1.707-6.827 0-11.947 1.707-18.773 1.707-5.12 1.707-11.947 1.707-17.067 3.413l-17.067 5.12-34.133 13.653c-5.12 3.413-10.24 5.12-17.067 8.533-5.12 3.413-10.24 6.827-15.36 10.24s-10.24 6.827-15.36 10.24l-13.653 11.947c-5.12 3.413-8.533 8.533-13.653 11.947l-11.947 13.653c-3.413 5.12-8.533 10.24-11.947 13.653-3.413 5.12-6.827 10.24-10.24 15.36l34.133 1.707c-6.827-10.24-13.653-22.187-17.067-35.84-1.707-3.413-1.707-6.827-1.707-10.24 0-1.707 0-3.413 0-5.12 0 0 0-1.707 0-1.707v-5.12c0-3.413 0-6.827 0-10.24s0-6.827 0-10.24 1.707-13.653 5.12-20.48c1.707-3.413 3.413-6.827 3.413-10.24 1.707-3.413 3.413-6.827 5.12-8.533 1.707-3.413 3.413-6.827 6.827-8.533 1.707-3.413 5.12-5.12 6.827-8.533 1.707-1.707 5.12-5.12 8.533-6.827s5.12-5.12 8.533-6.827c3.413-3.413 5.12-8.533 1.707-11.947-1.707-1.707-5.12-3.413-6.827-3.413v0c-10.24 0-20.48 1.707-29.013 3.413-10.24 1.707-18.773 5.12-29.013 10.24l18.773 10.24 1.707-10.24c0-3.413 1.707-5.12 1.707-8.533s1.707-5.12 3.413-8.533c0-3.413 1.707-5.12 3.413-8.533s3.413-5.12 3.413-8.533c1.707-3.413 3.413-5.12 5.12-6.827s3.413-5.12 5.12-6.827c1.707-1.707 3.413-5.12 5.12-6.827s3.413-3.413 6.827-6.827c1.707-1.707 3.413-3.413 6.827-5.12 1.707-1.707 5.12-3.413 6.827-5.12s5.12-3.413 6.827-5.12c1.707-1.707 5.12-1.707 6.827-3.413s5.12-1.707 6.827-3.413l17.067-3.413c13.653-3.413 22.187-15.36 18.773-29.013-1.707-8.533-8.533-15.36-17.067-18.773h-1.707c-10.24-3.413-20.48-5.12-30.72-6.827h-8.533c-3.413 0-5.12 0-8.533 0-5.12 0-10.24 1.707-17.067 1.707l32.427 34.133 1.707-6.827 10.24-20.48c3.413-3.413 5.12-8.533 8.533-11.947l15.36-15.36c1.707-1.707 3.413-3.413 5.12-3.413l20.48-10.24 13.653-3.413c1.707 0 5.12 0 6.827-1.707h5.12c11.947-1.707 20.48-13.653 18.773-25.6-1.707-6.827-5.12-11.947-8.533-15.36-6.827-5.12-13.653-10.24-20.48-13.653s-15.36-8.533-22.187-11.947c-6.827-3.413-15.36-6.827-23.893-8.533s-15.36-5.12-23.893-5.12c-3.413 0-8.533-1.707-11.947-1.707s-8.533 0-11.947-1.707c-8.533 0-15.36 0-23.893 0-3.413 0-8.533 0-11.947 1.707h-10.24c-6.827 1.707-15.36 3.413-22.187 5.12-1.707 0-1.707 1.707-1.707 3.413s1.707 1.707 1.707 1.707c6.827 1.707 15.36 1.707 22.187 3.413h5.12c0 0 0 0 0 0v0 0l5.12 1.707c3.413 0 6.827 1.707 10.24 1.707 6.827 1.707 13.653 3.413 20.48 5.12 3.413 1.707 6.827 1.707 10.24 3.413s6.827 3.413 10.24 3.413c3.413 1.707 6.827 3.413 10.24 5.12s6.827 3.413 8.533 5.12c6.827 3.413 11.947 6.827 17.067 10.24 11.947 8.533 22.187 17.067 32.427 25.6l15.36-42.667h-11.947l-11.947 1.707-10.24 1.707c-3.413 1.707-6.827 1.707-10.24 3.413l-10.24 3.413-17.067 15.36c-3.413 1.707-6.827 3.413-10.24 5.12s-6.827 5.12-8.533 6.827-11.947 10.24-17.067 15.36c-5.12 5.12-10.24 11.947-13.653 17.067-3.413 6.827-6.827 13.653-10.24 18.773l-6.827 20.48c-5.12 13.653 3.413 29.013 17.067 32.427 5.12 1.707 10.24 1.707 15.36 0 3.413 0 5.12-1.707 8.533-1.707h6.827c-1.707 0 0 0-1.707 0v0 0 0 0h1.707c6.827 0 13.653 0 20.48 1.707l1.707-47.787-11.947 3.413c-3.413 1.707-8.533 3.413-11.947 5.12s-6.827 3.413-10.24 5.12c-3.413 1.707-6.827 5.12-10.24 6.827s-6.827 5.12-10.24 8.533c-3.413 3.413-6.827 5.12-8.533 8.533-3.413 3.413-5.12 5.12-8.533 8.533-1.707 3.413-5.12 6.827-6.827 10.24s-5.12 6.827-6.827 10.24c-1.707 3.413-3.413 6.827-5.12 10.24s-3.413 6.827-3.413 11.947c-1.707 3.413-1.707 6.827-3.413 11.947 0 3.413-1.707 6.827-1.707 11.947 0 3.413-1.707 6.827-1.707 11.947 0 3.413 0 8.533 0 11.947v11.947c0 6.827 5.12 11.947 11.947 10.24 1.707 0 5.12-1.707 6.827-1.707 13.653-10.24 29.013-17.067 46.080-18.773l-1.707-11.947c-3.413 3.413-6.827 5.12-8.533 8.533-3.413 3.413-5.12 5.12-8.533 8.533s-5.12 6.827-8.533 8.533c-1.707 3.413-5.12 6.827-6.827 10.24-5.12 6.827-8.533 13.653-11.947 20.48s-6.827 15.36-8.533 22.187c-1.707 3.413-1.707 8.533-3.413 11.947 0 3.413-1.707 8.533-1.707 11.947v6.827c0 1.707 0 3.413 0 6.827s0 8.533 0 11.947c0 17.067 3.413 34.133 11.947 51.2 5.12 10.24 15.36 13.653 25.6 10.24 1.707-1.707 3.413-1.707 5.12-3.413l3.413-3.413c3.413-3.413 6.827-8.533 11.947-11.947 3.413-3.413 6.827-8.533 11.947-11.947l11.947-11.947c3.413-3.413 8.533-6.827 11.947-10.24l11.947-10.24c5.12-3.413 8.533-6.827 11.947-10.24 5.12-3.413 8.533-6.827 13.653-10.24l40.96-25.6 46.080-20.48 15.36-5.12c5.12-1.707 10.24-3.413 15.36-5.12s11.947-3.413 17.067-5.12c1.707 0 1.707-1.707 1.707-3.413-3.413-1.707-5.12-3.413-5.12-3.413zM336.213 820.053c0 0-10.24-5.12-29.013-15.36s-46.080-23.893-76.8-44.373c-15.36-10.24-32.427-23.893-49.493-39.253s-34.133-32.427-49.493-52.907c-30.72-40.96-56.32-93.867-68.267-155.307-3.413-30.72-6.827-64.853-5.12-98.987 0-5.12 0-8.533 0-13.653v-3.413c0 0 0 0 0 0v-8.533c0-8.533 1.707-18.773 1.707-27.307 1.707-17.067 5.12-34.133 8.533-52.907 1.707-8.533 3.413-17.067 6.827-27.307 1.707-5.12 1.707-8.533 3.413-13.653 3.413-1.707 5.12-6.827 6.827-10.24 5.12-17.067 13.653-34.133 22.187-52.907 17.067-34.133 39.253-66.56 66.56-95.573 54.613-58.027 131.413-102.4 215.040-122.88 20.48-5.12 42.667-8.533 63.147-11.947 22.187-3.413 42.667-3.413 64.853-3.413 10.24 0 22.187 0 32.427 1.707 3.413 0 5.12 0 8.533 0h8.533c5.12 0 11.947 1.707 17.067 1.707 20.48 3.413 42.667 8.533 63.147 13.653 40.96 11.947 78.507 32.427 112.64 58.027 32.427 25.6 61.44 56.32 85.333 90.453 46.080 68.267 69.973 148.48 78.507 228.693 1.707 20.48 3.413 39.253 3.413 59.733 0 10.24 0 18.773 0 29.013 0 5.12 0 10.24 0 15.36s0 10.24 0 15.36c0 8.533-1.707 18.773-1.707 27.307 0 5.12-1.707 8.533-1.707 13.653s-1.707 8.533-1.707 13.653c-3.413 18.773-6.827 35.84-11.947 52.907-20.48 68.267-58.027 126.293-107.52 163.84-47.787 39.253-104.107 59.733-155.307 69.973-25.6 5.12-49.493 6.827-71.68 8.533-23.893 1.707-44.373 1.707-63.147 1.707-39.253 0-68.267 0-88.747-1.707-10.24 0-18.773-1.707-22.187-3.413-5.12-1.707-6.827-1.707-6.827-1.707l-3.413 3.413c0 1.707 10.24 6.827 30.72 10.24 20.48 5.12 51.2 8.533 90.453 11.947 18.773 1.707 40.96 3.413 64.853 5.12s49.493 1.707 78.507-1.707c54.613-6.827 119.467-25.6 177.493-68.267 13.653-10.24 29.013-22.187 40.96-35.84 6.827-6.827 11.947-13.653 18.773-20.48 5.12-6.827 11.947-15.36 17.067-22.187 22.187-30.72 40.96-66.56 52.907-105.813 5.12-18.773 11.947-39.253 15.36-59.733 1.707-5.12 1.707-10.24 3.413-15.36 0-5.12 1.707-10.24 1.707-15.36 1.707-10.24 1.707-20.48 3.413-32.427 0-10.24 0-20.48 1.707-30.72v-15.36c0-5.12 0-10.24 0-15.36 0-20.48-1.707-42.667-5.12-63.147-1.707-22.187-6.827-42.667-11.947-64.853s-11.947-42.667-18.773-63.147c-8.533-20.48-17.067-40.96-27.307-61.44s-22.187-39.253-35.84-58.027c-13.653-18.773-29.013-35.84-46.080-52.907-17.067-15.36-34.133-30.72-54.613-42.667-39.253-25.6-81.92-44.373-126.293-54.613-22.187-5.12-44.373-8.533-68.267-10.24-22.187-1.707-44.373-1.707-66.56 0s-44.373 3.413-66.56 6.827c-22.187 3.413-44.373 6.827-64.853 13.653-85.333 22.187-165.547 61.44-230.4 117.76-32.427 29.013-59.733 61.44-81.92 97.28-10.24 18.773-20.48 35.84-27.307 54.613-1.707 5.12-3.413 10.24-5.12 13.653-1.707 5.12-3.413 10.24-5.12 13.653-3.413 10.24-5.12 18.773-8.533 29.013-5.12 18.773-8.533 39.253-10.24 58.027-1.707 10.24-1.707 18.773-3.413 27.307v15.36c0 5.12 0 8.533 0 13.653 0 37.547 3.413 73.387 10.24 107.52s18.773 66.56 32.427 93.867c13.653 29.013 32.427 52.907 51.2 75.093 18.773 20.48 37.547 39.253 58.027 52.907 18.773 15.36 37.547 25.6 56.32 35.84 34.133 18.773 64.853 29.013 83.627 35.84 20.48 6.827 30.72 10.24 30.72 10.24l-10.24-1.707zM64.853 422.4c0 0 0-3.413 0-8.533s0-13.653 1.707-25.6 5.12-52.907 18.773-90.453c3.413-10.24 6.827-18.773 11.947-29.013 1.707-5.12 5.12-10.24 6.827-15.36s5.12-10.24 8.533-15.36c11.947-20.48 25.6-42.667 44.373-63.147 35.84-42.667 87.040-78.507 148.48-102.4s134.827-35.84 213.333-39.253c10.24 0 18.773 0 29.013 0s20.48 0 30.72 0c10.24 0 20.48 0 30.72 0s20.48 1.707 30.72 1.707c5.12 0 10.24 0 15.36 1.707 5.12 0 10.24 1.707 15.36 1.707s10.24 1.707 15.36 1.707c5.12 1.707 10.24 1.707 15.36 1.707 20.48 3.413 40.96 10.24 59.733 17.067 20.48 6.827 39.253 17.067 56.32 29.013 18.773 11.947 35.84 23.893 51.2 39.253 32.427 30.72 58.027 66.56 76.8 107.52 37.547 81.92 47.787 177.493 35.84 266.24-6.827 44.373-18.773 88.747-35.84 129.707-8.533 20.48-18.773 40.96-29.013 59.733s-22.187 37.547-35.84 54.613c-27.307 34.133-58.027 64.853-93.867 88.747-17.067 11.947-35.84 22.187-54.613 30.72s-37.547 15.36-58.027 20.48c-20.48 5.12-39.253 8.533-59.733 11.947-20.48 1.707-39.253 3.413-59.733 3.413-40.96 0-81.92-1.707-119.467-6.827-39.253-5.12-76.8-11.947-110.933-23.893s-64.853-25.6-92.16-44.373c-52.907-35.84-92.16-87.040-114.347-136.533-11.947-25.6-20.48-49.493-27.307-73.387s-11.947-46.080-15.36-64.853c-1.707-10.24-3.413-18.773-3.413-29.013-1.707-8.533-1.707-17.067-3.413-25.6-1.707-15.36-1.707-29.013-1.707-39.253-1.707-22.187-1.707-34.133-1.707-34.133v0zM59.733 422.4c0 0 0 11.947 0 34.133 0 10.24 1.707 23.893 1.707 40.96 0 8.533 1.707 17.067 1.707 25.6s1.707 18.773 3.413 29.013c5.12 40.96 11.947 90.453 30.72 146.773 10.24 27.307 22.187 56.32 40.96 83.627s40.96 56.32 69.973 78.507c29.013 23.893 63.147 42.667 100.693 56.32s76.8 23.893 117.76 29.013c40.96 5.12 83.627 8.533 126.293 8.533 22.187 0 44.373-1.707 66.56-3.413 22.187-3.413 44.373-8.533 68.267-13.653 22.187-6.827 44.373-15.36 64.853-25.6s40.96-22.187 61.44-35.84c39.253-27.307 73.387-63.147 100.693-102.4s49.493-83.627 64.853-128c15.36-46.080 23.893-93.867 27.307-141.653s1.707-95.573-6.827-141.653c-3.413-23.893-8.533-46.080-17.067-68.267-6.827-22.187-15.36-44.373-25.6-64.853-20.48-42.667-46.080-80.213-78.507-114.347-32.427-32.427-69.973-59.733-110.933-80.213-20.48-10.24-40.96-17.067-63.147-23.893-5.12-1.707-10.24-3.413-17.067-3.413-5.12-1.707-11.947-3.413-15.36-3.413-5.12-1.707-10.24-1.707-15.36-3.413h-8.533l-8.533-1.707c-42.667-6.827-83.627-8.533-126.293-10.24-81.92 0-162.133 15.36-228.693 46.080-32.427 15.36-63.147 35.84-87.040 56.32-25.6 22.187-46.080 46.080-63.147 69.973-32.427 47.787-51.2 95.573-61.44 136.533-10.24 39.253-13.653 71.68-15.36 93.867 0 10.24-1.707 18.773-1.707 25.6 3.413 3.413 3.413 5.12 3.413 5.12v0z" />
</font></defs></svg>